"objid"	"char_name"	"note"	"step"	"SellMsg"	"BuyMsg"	"count"	"GfxId"	"Sex"	"Type"	"Heading"	"Lawful"	"Title"	"LocX"	"LocY"	"MapID"
"32702"	"로롤로"	"무기 1번"	"1"	"7무양 판매중"	"7무양 판매중"	"1"	"10047"	"0"	"0"	"5"	"32767"	""	"32797"	"32917"	"800"
"32703"	"장사꾼"	"무기 2번"	"1"	"\\f=f=5무양 팝니다"	"\\f=f=5무양 팝니다"	"1"	"10047"	"0"	"0"	"4"	"32767"	""	"32797"	"32915"	"800"
"32704"	"무기팜"	"무기 3번"	"1"	"\\f3f3파이7판다"	"\\f3f3파이7판다"	"1"	"11479"	"0"	"0"	"1"	"-32767"	""	"32795"	"32917"	"800"
"32705"	"야구공"	"무기 4번"	"1"	"5파이 팝니다"	"5파이 팝니다"	"1"	"9688"	"0"	"0"	"4"	"32767"	""	"32795"	"32915"	"800"
