"id"	"name"	"date"	"title"	"content"	"board_id"	"remaining_time"	"item_id"
"1"	"맞는데용"	"19/01/26"	"안뇽!"	"ㅎㅇㅎㅇ"	"4500302"		
"2"	"봉달이"	"19/01/26"	"봉다리기니 ㅍㅍㅍㅍㅍㅍㅍㅍ"	""	"4500302"		
"3"	"Meat"	"19/01/26"	"아뎅팝니다"	""	"4500302"		
"4"	"Meat"	"19/01/26"	"Knight통팝니다 싸게파라여"	"9무양 9오단 8마단
축5악세 5문장 5휘장
프라이드배?m고
5반방에 상점 7셋
아덴같이도팔고 따로도파라여"	"4500302"		
"5"	"거상"	"19/01/26"	"뎅 ㅍㅍㅍㅍ"	"ㅍㅍㅍㅍㅍㅍ"	"4500302"		
"6"	"일팔광땡"	"19/01/26"	"요정Knight통으로ㅅㅅㅅㅅ"	"ㅅㅅㅅㅅㅅㅅㅅㅅㅅㅅㅅㅅㅅㅅㅅㅅㅅㅅㅅㅅㅅㅅㅅㅅㅅㅅㅅㅅㅅㅅㅅㅅ"	"4500302"		
"7"	"무사마씸"	"19/01/26"	"Knight템구합니다."	"Knight템 구합니다.
010.2162.6718"	"4500302"		
"18"	"Mischeif"	"19/01/27"	"뎅싸게팝니다"	""	"4500302"		
"9"	"제주도복사본"	"19/01/27"	"용Knight장비통삼"	"싸게 삼니다 정리하실분만"	"4500302"		
"10"	"조이흥"	"19/01/27"	"아덴팝니다"	""	"4500302"		
"11"	"조이흥"	"19/01/27"	"랭커용Knight팝니다"	"9극체 7셋 축5악세 5악세"	"4500302"		
"12"	"조이흥"	"19/01/27"	"랭커Knight팝니다"	"8오단 8미단 9나양 7셋
축5악세 일반 5악세 6반방"	"4500302"		
"13"	"법샤"	"19/01/27"	"Sorcerer 환술템파라여 통팜"	""	"4500302"		
"18"	"극"	"19/01/27"	"랭커Knight ㅅㅅㅅㅅ"	"귓편지"	"4500302"		
"15"	"법샤"	"19/01/27"	"지존격수비사게삽니다"	""	"4500302"		
"18"	"Mischeif"	"19/01/27"	"뎅팝니다"	""	"4500302"		
"17"	"제주도복사본"	"19/01/27"	"케릭통산다!!!!!!!!"	"싸게산다 좁밥사절 !!!!
이제 Server 돌아가는거보고?
빨리 치킨값 짱게세트벌어가"	"4500302"		
"18"	"깜비아쏘"	"19/01/28"	"뎅팜귓주세요"	"ㅇㅇ"	"4500302"		
"23"	"펑티이모"	"19/01/29"	"82엠파군주통팜"	"9커검 9마단 7극셋 7강철각반
축7화티 축7수호파글 축8마망
6쌍완반 쌍축5용반 7반방 5합문장5합휘장 6테벨 축5푸/Dagger/붉귀
등 뎅도같이있어요 가격귓주세요"	"4500302"		
"20"	"히토미"	"19/01/28"	"랭커 군주  몸팜 ㅍㅍㅍ"	"

5캐시악세   몸땡이만 ㅍㅍ


5억  or  매니아 ㅍㅍ"	"4500302"		
"23"	"깜비아쏘"	"19/01/29"	"82엠파군주 ㅍ"	"편지주세요.
장비는 별로안좋네요.
7커검날림"	"4500302"		
"23"	"쯔위"	"19/01/29"	"82카배요정통팜"	"귓.편지"	"4500302"		
"22"	"뎅상인"	"19/01/29"	"뎅팝니다"	"귓"	"4500302"		
"23"	"대맹이샷"	"19/01/29"	"82Knight몸땡이팝니다"	"


5캐시악세 문장 휘장 7강철각반
남아있네요"	"4500302"		
"27"	"버프받자"	"19/01/31"	"캐릭삽니다"	"Knight 군주 캐릭 삽니다 
편지주세요 
뎅으로 구합니다."	"4500302"		
"25"	"장군이"	"19/01/30"	"뎅 팔아요~"	"10억 팔아요 가격말해서 편지주세요 ^^"	"4500302"		
"26"	"김민종"	"19/01/30"	"카배Knight 팝니다 (내용있음)"	"9마투 5발라완력 축7용티(힘)8완부 5반방5신성보호망토8파글8마법방어 각반 5쌍기백 축5용반5개 축4한개 7돌장9오단 9커검 8나발 Ivan 5수호투사문장5수호 투사휘장 축 5푸귀 축5검귀 아덴은 가져가실때 다드림니다"	"4500302"		
