"name"	"info"
"Wanted"	""
"검사다잉"	""
"군주다"	""
"군주요"	"256:1588031089110:0:0:0:0:0
"
"다엘확인"	"256:1589398599925:0:0:0:0:0
"
"다크Elf다"	""
"더더더"	"256:1588031028311:0:0:0:0:0
"
"법사테스트"	""
"블러디소울"	"256:1588669763931:1588669776995:1:0:0:0
257:1588669777015:1588669784363:5:0:0:0
258:1588669784380:1588669807859:7:0:0:0
259:1588669800313:1588669832640:1:0:0:0
260:1588669807890:1588669846573:1:0:0:0
309:1588669820535:1588669820535:1:0:0:0
261:1588669847008:1588669869958:3:3:3:0
262:1588669870676:1588669876139:1:0:0:0
263:1588669876155:1588669885436:5:0:0:0
264:1588669885465:1588669904823:1:0:0:0
265:1588669904834:1588669913334:10:0:0:0
266:1588669913994:1588669927591:1:0:0:0
271:1588669920595:0:0:0:0:0
279:1588669922073:1588669946761:35:0:0:0
267:1588669928567:1588670015830:5:3:0:0
304:1588669929162:1588670003174:30:0:0:0
369:1588669930064:1588669939808:30:0:0:0
283:1588669939830:1588669985273:40:0:0:0
280:1588669946786:1588669967772:10:5:5:0
287:1588669967798:1588670036484:45:0:0:0
281:1588669967807:1588669976934:10:0:0:0
282:1588669977578:1588669981835:1:0:0:0
284:1588669985297:1588670072246:5:5:5:0
305:1588670003192:1588670075937:30:0:0:0
268:1588670016554:1588670024630:1:0:0:0
269:1588670019477:1588670021455:1:0:0:0
270:1588670021477:1588670101945:5:5:5:0
291:1588670029708:1588670194443:48:0:0:0
288:1588670036500:1588670170358:15:15:0:0
285:1588670072263:1588670249313:10:0:0:0
306:1588670075950:1588670196458:30:0:0:0
273:1588670101957:1588670112774:10:0:0:0
274:1588670112796:1588670117133:1:0:0:0
275:1588670117144:1588670119969:1:0:0:0
276:1588670119975:1588670129492:1:0:0:0
278:1588670129508:1588670237655:5:5:5:0
277:1588670131688:0:0:0:0:0
289:1588670170377:1588670184551:20:0:0:0
294:1588670184597:1588670260083:50:0:0:0
290:1588670184599:1588670188090:1:0:0:0
292:1588670194463:1588670198254:1:0:0:0
293:1588670198857:1588670257926:6:0:0:0
297:1588670257986:1588670310838:52:0:0:0
295:1588670260099:1588670276756:5:5:0:0
296:1588670277356:1588670302559:15:15:0:0
300:1588670302765:0:52:0:0:0
298:1588670310854:1588670322552:10:0:0:0
307:1588670311954:1588670364052:30:0:0:0
299:1588670322566:0:0:0:0:0
"
"스턴테스트"	""
"스턴확인"	""
"아이이이"	""
"아이템화긴"	""
"요정요정"	""
"요정테스트"	""
"용Knight"	""
