"Step"	"Name"	"count"	"npc_id"	"locx"	"locy"	"heading"	"mapid"	"door"	"count_map"
"1"	"Viatas"	"1"	"45956"	"32757"	"32744"	"0"	"531"	"4048"	"0"
"3"	"Baromes"	"1"	"45957"	"32791"	"32786"	"0"	"531"	"4049"	"0"
"5"	"Endias"	"1"	"45958"	"32845"	"32857"	"0"	"531"	"4050"	"0"
"12"	"Edea"	"1"	"45959"	"32789"	"32812"	"0"	"532"	"4051"	"0"
"7"	"Tiames"	"1"	"45960"	"32859"	"32897"	"0"	"533"	"4052"	"0"
"9"	"Ramias"	"1"	"45961"	"32789"	"32891"	"0"	"533"	"4053"	"0"
"12"	"Keyna"	"1"	"45955"	"32862"	"32840"	"0"	"530"	"4047"	"0"
"13"	"Assassin Squad Leader Blaze"	"1"	"45585"	"32785"	"32837"	"0"	"495"	"4060"	"0"
"13"	"친위대장 가이트"	"1"	"45574"	"32831"	"32762"	"0"	"494"	"4063"	"0"
"13"	"Slave of Assassin King"	"1"	"45648"	"32833"	"32827"	"0"	"492"	"4066"	"0"
"13"	"Brigade Commander Dark Fencer"	"1"	"45577"	"32783"	"32837"	"0"	"452"	"4007"	"0"
"13"	"Demon King Baranka"	"1"	"45844"	"32838"	"32758"	"0"	"453"	"4067"	"0"
"13"	"Division Commander Sinclair"	"1"	"45588"	"32745"	"32823"	"0"	"456"	"4012"	"0"
"13"	"Evil Power Squad Leader Kybar"	"1"	"45607"	"32758"	"32823"	"0"	"455"	"4015"	"0"
"13"	"Temple Head Bounty"	"1"	"45612"	"32770"	"32829"	"0"	"466"	"4034"	"0"
"13"	"Evil Magic Squad Leader Carmiel"	"1"	"45602"	"32842"	"32821"	"0"	"461"	"4017"	"0"
"13"	"Dread Queen Laia"	"1"	"45863"	"32805"	"32839"	"0"	"462"	"4022"	"0"
"13"	"Mercenary Commander Mephaisto"	"1"	"45608"	"32791"	"32815"	"0"	"471"	"4031"	"0"
"13"	"Bright Magic Troup Leader Crepus"	"1"	"45615"	"32922"	"32846"	"0"	"473"	"4040"	"0"
"13"	"Bright Magic King Hellvine"	"1"	"45676"	"32785"	"32844"	"0"	"475"	"4046"	"0"
"12"	"Vice Priest Cassandra"	"0"	"45963"	"32858"	"32821"	"0"	"534"	"4055"	"0"
"0"	"비아타스방(다크위자드)"	"1"	"45993"	"32753"	"32740"	"0"	"531"	"4048"	"0"
"0"	"비아타스방(다크위자드)"	"1"	"45993"	"32753"	"32748"	"0"	"531"	"4048"	"0"
"0"	"비아타스방(다크위자드)"	"1"	"45993"	"32761"	"32740"	"0"	"531"	"4048"	"0"
"0"	"비아타스방(다크위자드)"	"1"	"45993"	"32759"	"32748"	"0"	"531"	"4048"	"0"
"0"	"비아타스방(다크위자드)"	"1"	"45993"	"32752"	"32743"	"0"	"531"	"4048"	"0"
"0"	"비아타스방(Court Guard)"	"1"	"46005"	"32754"	"32741"	"0"	"531"	"4048"	"0"
"0"	"비아타스방(Court Guard)"	"1"	"46005"	"32754"	"32747"	"0"	"531"	"4048"	"0"
"0"	"비아타스방(Court Guard)"	"1"	"46005"	"32760"	"32741"	"0"	"531"	"4048"	"0"
"0"	"비아타스방(Court Guard)"	"1"	"46005"	"32760"	"32747"	"0"	"531"	"4048"	"0"
"0"	"비아타스방(Court Guard)"	"1"	"46005"	"32752"	"32744"	"0"	"531"	"4048"	"0"
"0"	"비아타스방(블러디나이트)"	"1"	"46012"	"32755"	"32742"	"0"	"531"	"4048"	"0"
"0"	"비아타스방(블러디나이트)"	"1"	"46012"	"32755"	"32746"	"0"	"531"	"4048"	"0"
"0"	"비아타스방(블러디나이트)"	"1"	"46012"	"32759"	"32742"	"0"	"531"	"4048"	"0"
"0"	"비아타스방(블러디나이트)"	"1"	"46012"	"32759"	"32746"	"0"	"531"	"4048"	"0"
"0"	"비아타스방(블러디나이트)"	"1"	"46012"	"32752"	"32745"	"0"	"531"	"4048"	"0"
"0"	"비아타스방(팬텀)"	"1"	"46006"	"32753"	"32742"	"0"	"531"	"4048"	"0"
"0"	"비아타스방(팬텀)"	"1"	"46006"	"32753"	"32746"	"0"	"531"	"4048"	"0"
"0"	"비아타스방(팬텀)"	"1"	"46006"	"32761"	"32742"	"0"	"531"	"4048"	"0"
"0"	"비아타스방(팬텀)"	"1"	"46006"	"32761"	"32746"	"0"	"531"	"4048"	"0"
"0"	"비아타스방(팬텀)"	"1"	"46006"	"32752"	"32746"	"0"	"531"	"4048"	"0"
"0"	"비아타스방(블러디아사신)"	"1"	"46001"	"32755"	"32740"	"0"	"531"	"4048"	"0"
"0"	"비아타스방(블러디아사신)"	"1"	"46001"	"32755"	"32748"	"0"	"531"	"4048"	"0"
"0"	"비아타스방(블러디아사신)"	"1"	"46001"	"32759"	"32740"	"0"	"531"	"4048"	"0"
"0"	"비아타스방(블러디아사신)"	"1"	"46001"	"32761"	"32748"	"0"	"531"	"4048"	"0"
"0"	"비아타스방(블러디아사신)"	"1"	"46001"	"32752"	"32747"	"0"	"531"	"4048"	"0"
"0"	"비아타스방(Court Guard)"	"1"	"45990"	"32751"	"32742"	"0"	"531"	"4048"	"0"
"0"	"비아타스방(Court Guard)"	"1"	"45990"	"32751"	"32743"	"0"	"531"	"4048"	"0"
"0"	"비아타스방(Court Guard)"	"1"	"45990"	"32751"	"32744"	"0"	"531"	"4048"	"0"
"0"	"비아타스방(Court Guard)"	"1"	"45990"	"32751"	"32745"	"0"	"531"	"4048"	"0"
"0"	"비아타스방(Court Guard)"	"1"	"45990"	"32751"	"32746"	"0"	"531"	"4048"	"0"
"1"	"Viatas(Elder Attendant)"	"1"	"46002"	"32756"	"32744"	"0"	"531"	"4048"	"0"
"1"	"Viatas(Elder Attendant)"	"1"	"46002"	"32758"	"32744"	"0"	"531"	"4048"	"0"
"1"	"Viatas(Elder Attendant)"	"1"	"46002"	"32756"	"32743"	"0"	"531"	"4048"	"0"
"1"	"Viatas(Elder Attendant)"	"1"	"46002"	"32758"	"32743"	"0"	"531"	"4048"	"0"
"1"	"Viatas(Elder Attendant)"	"1"	"46002"	"32756"	"32745"	"0"	"531"	"4048"	"0"
"1"	"Viatas(Elder Attendant)"	"1"	"46002"	"32758"	"32743"	"0"	"531"	"4048"	"0"
"1"	"Viatas(Elder Attendant)"	"1"	"46002"	"32757"	"32743"	"0"	"531"	"4048"	"0"
"1"	"Viatas(Elder Attendant)"	"1"	"46002"	"32757"	"32745"	"0"	"531"	"4048"	"0"
"2"	"바로메스방(다크위저드)"	"1"	"45993"	"32796"	"32790"	"0"	"531"	"4049"	"0"
"2"	"바로메스방(다크위저드)"	"1"	"45993"	"32791"	"32790"	"0"	"531"	"4049"	"0"
"2"	"바로메스방(다크위저드)"	"1"	"45993"	"32789"	"32782"	"0"	"531"	"4049"	"0"
"2"	"바로메스방(다크위저드)"	"1"	"45993"	"32794"	"32782"	"0"	"531"	"4049"	"0"
"2"	"바로메스방(다크위저드)"	"1"	"45993"	"32798"	"32781"	"0"	"531"	"4049"	"0"
"2"	"바로메스방(Court Guard)"	"1"	"46005"	"32789"	"32790"	"0"	"531"	"4049"	"0"
"2"	"바로메스방(Court Guard)"	"1"	"46005"	"32790"	"32783"	"0"	"531"	"4049"	"0"
"2"	"바로메스방(Court Guard)"	"1"	"46005"	"32795"	"32783"	"0"	"531"	"4049"	"0"
"2"	"바로메스방(Court Guard)"	"1"	"46005"	"32794"	"32788"	"0"	"531"	"4049"	"0"
"2"	"바로메스방(Court Guard)"	"1"	"46005"	"32798"	"32790"	"0"	"531"	"4049"	"0"
"2"	"바로메스방(블러디나이트)"	"1"	"46012"	"32789"	"32788"	"0"	"531"	"4049"	"0"
"2"	"바로메스방(블러디나이트)"	"1"	"46012"	"32789"	"32783"	"0"	"531"	"4049"	"0"
"2"	"바로메스방(블러디나이트)"	"1"	"46012"	"32796"	"32783"	"0"	"531"	"4049"	"0"
"2"	"바로메스방(블러디나이트)"	"1"	"46012"	"32796"	"32788"	"0"	"531"	"4049"	"0"
"2"	"바로메스방(블러디나이트)"	"1"	"46012"	"32798"	"32788"	"0"	"531"	"4049"	"0"
"2"	"바로메스방(팬텀)"	"1"	"46006"	"32793"	"32789"	"0"	"531"	"4049"	"0"
"2"	"바로메스방(팬텀)"	"1"	"46006"	"32795"	"32786"	"0"	"531"	"4049"	"0"
"2"	"바로메스방(팬텀)"	"1"	"46006"	"32792"	"32783"	"0"	"531"	"4049"	"0"
"2"	"바로메스방(팬텀)"	"1"	"46006"	"32789"	"32786"	"0"	"531"	"4049"	"0"
"2"	"바로메스방(팬텀)"	"1"	"46006"	"32798"	"32784"	"0"	"531"	"4049"	"0"
"2"	"바로메스방(블러디아사신)"	"1"	"46001"	"32793"	"32791"	"0"	"531"	"4049"	"0"
"2"	"바로메스방(블러디아사신)"	"1"	"46001"	"32797"	"32786"	"0"	"531"	"4049"	"0"
"2"	"바로메스방(블러디아사신)"	"1"	"46001"	"32793"	"32781"	"0"	"531"	"4049"	"0"
"2"	"바로메스방(블러디아사신)"	"1"	"46001"	"32788"	"32785"	"0"	"531"	"4049"	"0"
"2"	"바로메스방(블러디아사신)"	"1"	"46001"	"32799"	"32785"	"0"	"531"	"4049"	"0"
"2"	"바로메스방(Court Guard)"	"1"	"45990"	"32788"	"32787"	"0"	"531"	"4049"	"0"
"2"	"바로메스방(Court Guard)"	"1"	"45990"	"32792"	"32791"	"0"	"531"	"4049"	"0"
"2"	"바로메스방(Court Guard)"	"1"	"45990"	"32792"	"32781"	"0"	"531"	"4049"	"0"
"2"	"바로메스방(Court Guard)"	"1"	"45990"	"32797"	"32787"	"0"	"531"	"4049"	"0"
"2"	"바로메스방(Court Guard)"	"1"	"45990"	"32797"	"32785"	"0"	"531"	"4049"	"0"
"3"	"Baromes(Elder Attendant)"	"1"	"46002"	"32790"	"32785"	"0"	"531"	"4049"	"0"
"3"	"Baromes(Elder Attendant)"	"1"	"46002"	"32790"	"32787"	"0"	"531"	"4049"	"0"
"3"	"Baromes(Elder Attendant)"	"1"	"46002"	"32791"	"32785"	"0"	"531"	"4049"	"0"
"3"	"Baromes(Elder Attendant)"	"1"	"46002"	"32791"	"32787"	"0"	"531"	"4049"	"0"
"3"	"Baromes(Elder Attendant)"	"1"	"46002"	"32789"	"32785"	"0"	"531"	"4049"	"0"
"3"	"Baromes(Elder Attendant)"	"1"	"46002"	"32789"	"32787"	"0"	"531"	"4049"	"0"
"3"	"Baromes(Elder Attendant)"	"1"	"46002"	"32789"	"32786"	"0"	"531"	"4049"	"0"
"3"	"Baromes(Elder Attendant)"	"1"	"46002"	"32791"	"32786"	"0"	"531"	"4049"	"0"
"4"	"Endias(다크위저드)"	"1"	"45993"	"32845"	"32853"	"0"	"531"	"4050"	"0"
"4"	"Endias(다크위저드)"	"1"	"45993"	"32845"	"32860"	"0"	"531"	"4050"	"0"
"4"	"Endias(다크위저드)"	"1"	"45993"	"32838"	"32853"	"0"	"531"	"4050"	"0"
"4"	"Endias(다크위저드)"	"1"	"45993"	"32834"	"32860"	"0"	"531"	"4050"	"0"
"4"	"Endias(다크위저드)"	"1"	"45993"	"32839"	"32857"	"0"	"531"	"4050"	"0"
"4"	"Endias(Court Guard)"	"1"	"46005"	"32843"	"32853"	"0"	"531"	"4050"	"0"
"4"	"Endias(Court Guard)"	"1"	"46005"	"32843"	"32860"	"0"	"531"	"4050"	"0"
"4"	"Endias(Court Guard)"	"1"	"46005"	"32836"	"32853"	"0"	"531"	"4050"	"0"
"4"	"Endias(Court Guard)"	"1"	"46005"	"32836"	"32860"	"0"	"531"	"4050"	"0"
"4"	"Endias(Court Guard)"	"1"	"46005"	"32842"	"32857"	"0"	"531"	"4050"	"0"
"4"	"Endias(블러디나이트)"	"1"	"46012"	"32844"	"32855"	"0"	"531"	"4050"	"0"
"4"	"Endias(블러디나이트)"	"1"	"46012"	"32843"	"32858"	"0"	"531"	"4050"	"0"
"4"	"Endias(블러디나이트)"	"1"	"46012"	"32834"	"32853"	"0"	"531"	"4050"	"0"
"4"	"Endias(블러디나이트)"	"1"	"46012"	"32838"	"32860"	"0"	"531"	"4050"	"0"
"4"	"Endias(블러디나이트)"	"1"	"46012"	"32837"	"32857"	"0"	"531"	"4050"	"0"
"4"	"Endias(팬텀)"	"1"	"46006"	"32841"	"32855"	"0"	"531"	"4050"	"0"
"4"	"Endias(팬텀)"	"1"	"46006"	"32841"	"32858"	"0"	"531"	"4050"	"0"
"4"	"Endias(팬텀)"	"1"	"46006"	"32835"	"32855"	"0"	"531"	"4050"	"0"
"4"	"Endias(팬텀)"	"1"	"46006"	"32837"	"32858"	"0"	"531"	"4050"	"0"
"4"	"Endias(팬텀)"	"1"	"46006"	"32834"	"32857"	"0"	"531"	"4050"	"0"
"4"	"Endias(블러디아사신)"	"1"	"46001"	"32841"	"32853"	"0"	"531"	"4050"	"0"
"4"	"Endias(블러디아사신)"	"1"	"46001"	"32841"	"32860"	"0"	"531"	"4050"	"0"
"4"	"Endias(블러디아사신)"	"1"	"46001"	"32837"	"32855"	"0"	"531"	"4050"	"0"
"4"	"Endias(블러디아사신)"	"1"	"46001"	"32835"	"32858"	"0"	"531"	"4050"	"0"
"4"	"Endias(블러디아사신)"	"1"	"46001"	"32840"	"32847"	"0"	"531"	"4050"	"0"
"4"	"Endias(Court Guard)"	"1"	"45990"	"32836"	"32848"	"0"	"531"	"4050"	"0"
"4"	"Endias(Court Guard)"	"1"	"45990"	"32838"	"32848"	"0"	"531"	"4050"	"0"
"4"	"Endias(Court Guard)"	"1"	"45990"	"32840"	"32848"	"0"	"531"	"4050"	"0"
"4"	"Endias(Court Guard)"	"1"	"45990"	"32842"	"32848"	"0"	"531"	"4050"	"0"
"4"	"Endias(Court Guard)"	"1"	"45990"	"32844"	"32848"	"0"	"531"	"4050"	"0"
"5"	"Endias(Elder Attendant)"	"1"	"46002"	"32845"	"32856"	"0"	"531"	"4050"	"0"
"5"	"Endias(Elder Attendant)"	"1"	"46002"	"32845"	"32858"	"0"	"531"	"4050"	"0"
"5"	"Endias(Elder Attendant)"	"1"	"46002"	"32844"	"32856"	"0"	"531"	"4050"	"0"
"5"	"Endias(Elder Attendant)"	"1"	"46002"	"32844"	"32858"	"0"	"531"	"4050"	"0"
"5"	"Endias(Elder Attendant)"	"1"	"46002"	"32846"	"32856"	"0"	"531"	"4050"	"0"
"5"	"Endias(Elder Attendant)"	"1"	"46002"	"32846"	"32858"	"0"	"531"	"4050"	"0"
"5"	"Endias(Elder Attendant)"	"1"	"46002"	"32844"	"32857"	"0"	"531"	"4050"	"0"
"5"	"Endias(Elder Attendant)"	"1"	"46002"	"32846"	"32857"	"0"	"531"	"4050"	"0"
"6"	"티아메스방(블러디나이트)"	"1"	"46012"	"32849"	"32897"	"0"	"533"	"4052"	"0"
"6"	"티아메스방(블러디나이트)"	"1"	"46012"	"32852"	"32894"	"0"	"533"	"4052"	"0"
"6"	"티아메스방(블러디나이트)"	"1"	"46012"	"32855"	"32897"	"0"	"533"	"4052"	"0"
"6"	"티아메스방(블러디나이트)"	"1"	"46012"	"32852"	"32900"	"0"	"533"	"4052"	"0"
"6"	"티아메스방(블러디나이트)"	"1"	"46012"	"32852"	"32897"	"0"	"533"	"4052"	"0"
"6"	"티아메스방(어둠의복수자)"	"1"	"46010"	"32848"	"32896"	"0"	"533"	"4052"	"0"
"6"	"티아메스방(어둠의복수자)"	"1"	"46010"	"32853"	"32893"	"0"	"533"	"4052"	"0"
"6"	"티아메스방(어둠의복수자)"	"1"	"46010"	"32854"	"32896"	"0"	"533"	"4052"	"0"
"6"	"티아메스방(어둠의복수자)"	"1"	"46010"	"32851"	"32901"	"0"	"533"	"4052"	"0"
"6"	"티아메스방(어둠의복수자)"	"1"	"46010"	"32851"	"32898"	"0"	"533"	"4052"	"0"
"6"	"티아메스방(Court Guard)"	"1"	"46005"	"32850"	"32898"	"0"	"533"	"4052"	"0"
"6"	"티아메스방(Court Guard)"	"1"	"46005"	"32851"	"32893"	"0"	"533"	"4052"	"0"
"6"	"티아메스방(Court Guard)"	"1"	"46005"	"32856"	"32898"	"0"	"533"	"4052"	"0"
"6"	"티아메스방(Court Guard)"	"1"	"46005"	"32853"	"32899"	"0"	"533"	"4052"	"0"
"6"	"티아메스방(Court Guard)"	"1"	"46005"	"32853"	"32896"	"0"	"533"	"4052"	"0"
"6"	"티아메스방(다크위저드)"	"1"	"45996"	"32848"	"32898"	"0"	"533"	"4052"	"0"
"6"	"티아메스방(다크위저드)"	"1"	"45996"	"32853"	"32895"	"0"	"533"	"4052"	"0"
"6"	"티아메스방(다크위저드)"	"1"	"45996"	"32856"	"32896"	"0"	"533"	"4052"	"0"
"6"	"티아메스방(다크위저드)"	"1"	"45996"	"32851"	"32899"	"0"	"533"	"4052"	"0"
"6"	"티아메스방(다크위저드)"	"1"	"45996"	"32851"	"32896"	"0"	"533"	"4052"	"0"
"6"	"티아메스방(블러디아사신)"	"1"	"46001"	"32850"	"32896"	"0"	"533"	"4052"	"0"
"6"	"티아메스방(블러디아사신)"	"1"	"46001"	"32851"	"32895"	"0"	"533"	"4052"	"0"
"6"	"티아메스방(블러디아사신)"	"1"	"46001"	"32854"	"32898"	"0"	"533"	"4052"	"0"
"6"	"티아메스방(블러디아사신)"	"1"	"46001"	"32853"	"32901"	"0"	"533"	"4052"	"0"
"6"	"티아메스방(블러디아사신)"	"1"	"46001"	"32853"	"32898"	"0"	"533"	"4052"	"0"
"6"	"티아메스방(Court Guard)"	"1"	"45990"	"32847"	"32895"	"0"	"533"	"4052"	"0"
"6"	"티아메스방(Court Guard)"	"1"	"45990"	"32847"	"32896"	"0"	"533"	"4052"	"0"
"6"	"티아메스방(Court Guard)"	"1"	"45990"	"32847"	"32897"	"0"	"533"	"4052"	"0"
"6"	"티아메스방(Court Guard)"	"1"	"45990"	"32847"	"32898"	"0"	"533"	"4052"	"0"
"6"	"티아메스방(Court Guard)"	"1"	"45990"	"32847"	"32899"	"0"	"533"	"4052"	"0"
"7"	"Tiames(Elder Attendant)"	"1"	"46002"	"32859"	"32896"	"0"	"533"	"4052"	"0"
"7"	"Tiames(Elder Attendant)"	"1"	"46002"	"32859"	"32898"	"0"	"533"	"4052"	"0"
"7"	"Tiames(Elder Attendant)"	"1"	"46002"	"32860"	"32896"	"0"	"533"	"4052"	"0"
"7"	"Tiames(Elder Attendant)"	"1"	"46002"	"32860"	"32898"	"0"	"533"	"4052"	"0"
"7"	"Tiames(Elder Attendant)"	"1"	"46002"	"32858"	"32896"	"0"	"533"	"4052"	"0"
"7"	"Tiames(Elder Attendant)"	"1"	"46002"	"32858"	"32898"	"0"	"533"	"4052"	"0"
"7"	"Tiames(Elder Attendant)"	"1"	"46002"	"32858"	"32897"	"0"	"533"	"4052"	"0"
"7"	"Tiames(Elder Attendant)"	"1"	"46002"	"32860"	"32897"	"0"	"533"	"4052"	"0"
"8"	"라미아스방(블러디나이트)"	"1"	"46012"	"32772"	"32892"	"0"	"533"	"4053"	"0"
"8"	"라미아스방(블러디나이트)"	"1"	"46012"	"32776"	"32888"	"0"	"533"	"4053"	"0"
"8"	"라미아스방(블러디나이트)"	"1"	"46012"	"32776"	"32896"	"0"	"533"	"4053"	"0"
"8"	"라미아스방(블러디나이트)"	"1"	"46012"	"32780"	"32892"	"0"	"533"	"4053"	"0"
"8"	"라미아스방(블러디나이트)"	"1"	"46012"	"32784"	"32892"	"0"	"533"	"4053"	"0"
"8"	"라미아스방(어둠의복수자)"	"1"	"46010"	"32771"	"32891"	"0"	"533"	"4053"	"0"
"8"	"라미아스방(어둠의복수자)"	"1"	"46010"	"32775"	"32887"	"0"	"533"	"4053"	"0"
"8"	"라미아스방(어둠의복수자)"	"1"	"46010"	"32775"	"32895"	"0"	"533"	"4053"	"0"
"8"	"라미아스방(어둠의복수자)"	"1"	"46010"	"32779"	"32891"	"0"	"533"	"4053"	"0"
"8"	"라미아스방(어둠의복수자)"	"1"	"46010"	"32783"	"32891"	"0"	"533"	"4053"	"0"
"8"	"라미아스방(Court Guard)"	"1"	"46005"	"32773"	"32893"	"0"	"533"	"4053"	"0"
"8"	"라미아스방(Court Guard)"	"1"	"46005"	"32777"	"32889"	"0"	"533"	"4053"	"0"
"8"	"라미아스방(Court Guard)"	"1"	"46005"	"32778"	"32897"	"0"	"533"	"4053"	"0"
"8"	"라미아스방(Court Guard)"	"1"	"46005"	"32781"	"32893"	"0"	"533"	"4053"	"0"
"8"	"라미아스방(Court Guard)"	"1"	"46005"	"32785"	"32893"	"0"	"533"	"4053"	"0"
"8"	"라미아스방(다크위저드)"	"1"	"45996"	"32774"	"32890"	"0"	"533"	"4053"	"0"
"8"	"라미아스방(다크위저드)"	"1"	"45996"	"32775"	"32889"	"0"	"533"	"4053"	"0"
"8"	"라미아스방(다크위저드)"	"1"	"45996"	"32775"	"32897"	"0"	"533"	"4053"	"0"
"8"	"라미아스방(다크위저드)"	"1"	"45996"	"32779"	"32893"	"0"	"533"	"4053"	"0"
"8"	"라미아스방(다크위저드)"	"1"	"45996"	"32783"	"32893"	"0"	"533"	"4053"	"0"
"8"	"라미아스방(블러디아사신)"	"1"	"46001"	"32771"	"32893"	"0"	"533"	"4053"	"0"
"8"	"라미아스방(블러디아사신)"	"1"	"46001"	"32778"	"32886"	"0"	"533"	"4053"	"0"
"8"	"라미아스방(블러디아사신)"	"1"	"46001"	"32778"	"32894"	"0"	"533"	"4053"	"0"
"8"	"라미아스방(블러디아사신)"	"1"	"46001"	"32781"	"32891"	"0"	"533"	"4053"	"0"
"8"	"라미아스방(블러디아사신)"	"1"	"46001"	"32785"	"32891"	"0"	"533"	"4053"	"0"
"8"	"라미아스방(Court Guard)"	"1"	"45990"	"32789"	"32888"	"0"	"533"	"4053"	"0"
"8"	"라미아스방(Court Guard)"	"1"	"45990"	"32790"	"32888"	"0"	"533"	"4053"	"0"
"8"	"라미아스방(Court Guard)"	"1"	"45990"	"32791"	"32888"	"0"	"533"	"4053"	"0"
"8"	"라미아스방(Court Guard)"	"1"	"45990"	"32792"	"32888"	"0"	"533"	"4053"	"0"
"8"	"라미아스방(Court Guard)"	"1"	"45990"	"32793"	"32888"	"0"	"533"	"4053"	"0"
"9"	"Ramias(Elder Attendant)"	"1"	"46002"	"32789"	"32890"	"0"	"533"	"4053"	"0"
"9"	"Ramias(Elder Attendant)"	"1"	"46002"	"32789"	"32892"	"0"	"533"	"4053"	"0"
"9"	"Ramias(Elder Attendant)"	"1"	"46002"	"32790"	"32890"	"0"	"533"	"4053"	"0"
"9"	"Ramias(Elder Attendant)"	"1"	"46002"	"32790"	"32892"	"0"	"533"	"4053"	"0"
"9"	"Ramias(Elder Attendant)"	"1"	"46002"	"32788"	"32890"	"0"	"533"	"4053"	"0"
"9"	"Ramias(Elder Attendant)"	"1"	"46002"	"32788"	"32892"	"0"	"533"	"4053"	"0"
"9"	"Ramias(Elder Attendant)"	"1"	"46002"	"32788"	"32891"	"0"	"533"	"4053"	"0"
"9"	"Ramias(Elder Attendant)"	"1"	"46002"	"32790"	"32891"	"0"	"533"	"4053"	"0"
"10"	"바로드방(블러디나이트)"	"1"	"46012"	"32749"	"32812"	"0"	"533"	"4054"	"0"
"10"	"바로드방(블러디나이트)"	"1"	"46012"	"32754"	"32807"	"0"	"533"	"4054"	"0"
"10"	"바로드방(블러디나이트)"	"1"	"46012"	"32759"	"32812"	"0"	"533"	"4054"	"0"
"10"	"바로드방(블러디나이트)"	"1"	"46012"	"32754"	"32817"	"0"	"533"	"4054"	"0"
"10"	"바로드방(블러디나이트)"	"1"	"46012"	"32754"	"32822"	"0"	"533"	"4054"	"0"
"10"	"바로드방(어둠의복수자)"	"1"	"46010"	"32750"	"32813"	"0"	"533"	"4054"	"0"
"10"	"바로드방(어둠의복수자)"	"1"	"46010"	"32753"	"32806"	"0"	"533"	"4054"	"0"
"10"	"바로드방(어둠의복수자)"	"1"	"46010"	"32758"	"32811"	"0"	"533"	"4054"	"0"
"10"	"바로드방(어둠의복수자)"	"1"	"46010"	"32753"	"32816"	"0"	"533"	"4054"	"0"
"10"	"바로드방(어둠의복수자)"	"1"	"46010"	"32753"	"32822"	"0"	"533"	"4054"	"0"
"10"	"바로드방(Court Guard)"	"1"	"46005"	"32748"	"32811"	"0"	"533"	"4054"	"0"
"10"	"바로드방(Court Guard)"	"1"	"46005"	"32755"	"32808"	"0"	"533"	"4054"	"0"
"10"	"바로드방(Court Guard)"	"1"	"46005"	"32753"	"32811"	"0"	"533"	"4054"	"0"
"10"	"바로드방(Court Guard)"	"1"	"46005"	"32755"	"32818"	"0"	"533"	"4054"	"0"
"10"	"바로드방(Court Guard)"	"1"	"46005"	"32755"	"32822"	"0"	"533"	"4054"	"0"
"10"	"바로드방(다크위저드)"	"1"	"45996"	"32750"	"32811"	"0"	"533"	"4054"	"0"
"10"	"바로드방(다크위저드)"	"1"	"45996"	"32753"	"32808"	"0"	"533"	"4054"	"0"
"10"	"바로드방(다크위저드)"	"1"	"45996"	"32760"	"32813"	"0"	"533"	"4054"	"0"
"10"	"바로드방(다크위저드)"	"1"	"45996"	"32753"	"32818"	"0"	"533"	"4054"	"0"
"10"	"바로드방(다크위저드)"	"1"	"45996"	"32754"	"32821"	"0"	"533"	"4054"	"0"
"10"	"바로드방(블러디아사신)"	"1"	"46001"	"32748"	"32813"	"0"	"533"	"4054"	"0"
"10"	"바로드방(블러디아사신)"	"1"	"46001"	"32755"	"32806"	"0"	"533"	"4054"	"0"
"10"	"바로드방(블러디아사신)"	"1"	"46001"	"32760"	"32811"	"0"	"533"	"4054"	"0"
"10"	"바로드방(블러디아사신)"	"1"	"46001"	"32755"	"32816"	"0"	"533"	"4054"	"0"
"10"	"바로드방(블러디아사신)"	"1"	"46001"	"32754"	"32823"	"0"	"533"	"4054"	"0"
"10"	"바로드방(Court Guard)"	"1"	"45990"	"32757"	"32825"	"0"	"533"	"4054"	"0"
"10"	"바로드방(Court Guard)"	"1"	"45990"	"32756"	"32825"	"0"	"533"	"4054"	"0"
"10"	"바로드방(Court Guard)"	"1"	"45990"	"32755"	"32825"	"0"	"533"	"4054"	"0"
"10"	"바로드방(Court Guard)"	"1"	"45990"	"32754"	"32825"	"0"	"533"	"4054"	"0"
"10"	"바로드방(Court Guard)"	"1"	"45990"	"32753"	"32825"	"0"	"533"	"4054"	"0"
"11"	"Barode(Elder Attendant)"	"1"	"46002"	"32753"	"32803"	"0"	"533"	"4054"	"0"
"11"	"Barode(Elder Attendant)"	"1"	"46002"	"32755"	"32803"	"0"	"533"	"4054"	"0"
"11"	"Barode(Elder Attendant)"	"1"	"46002"	"32754"	"32802"	"0"	"533"	"4054"	"0"
"11"	"Barode(Elder Attendant)"	"1"	"46002"	"32754"	"32804"	"0"	"533"	"4054"	"0"
"11"	"Barode(Elder Attendant)"	"1"	"46002"	"32753"	"32802"	"0"	"533"	"4054"	"0"
"11"	"Barode(Elder Attendant)"	"1"	"46002"	"32753"	"32804"	"0"	"533"	"4054"	"0"
"11"	"Barode(Elder Attendant)"	"1"	"46002"	"32755"	"32802"	"0"	"533"	"4054"	"0"
"11"	"Barode(Elder Attendant)"	"1"	"46002"	"32755"	"32804"	"0"	"533"	"4054"	"0"
"11"	"Barode"	"1"	"45962"	"32754"	"32803"	"0"	"533"	"4054"	"0"
