"id"	"datetime"	"type"	"account"	"char_id"	"char_name"	"item_id"	"item_name"	"item_enchantlvl"	"item_count"
"332269"	"14/8/2019 12:26:33"	"개인넣기"	"gm123"	"286303424"	"마이크로"	"286303427"	"Fast Healing Potion"	"0"	"200"
"332270"	"14/8/2019 17:02:59"	"개인넣기"	"gm123"	"286303424"	"마이크로"	"288270987"	"Fidelity Execution Sword"	"9"	"1"
"332271"	"23/8/2019 17:17:01"	"개인넣기"	"sunho123"	"294087532"	"유정우"	"294101103"	"Dexterity Boots"	"9"	"1"
"332272"	"24/8/2019 08:54:26"	"개인넣기"	"sunho123"	"294087532"	"유정우"	"294317774"	"Tech Book (Counter Barrier)"	"0"	"1"
"332273"	"24/8/2019 09:27:30"	"개인넣기"	"sunho123"	"294087532"	"유정우"	"294320618"	"Dark Spirit Crystal (아머 브레이크:데스티니)"	"0"	"1"
"332274"	"24/8/2019 11:11:54"	"개인넣기"	"sunho123"	"294087532"	"유정우"	"294087680"	"1억 Aden 수표"	"0"	"400"
"332275"	"26/8/2019 09:22:20"	"개인넣기"	"sunho123"	"294087532"	"유정우"	"294087691"	"Polymorph 지배 Ring"	"0"	"1"
"332276"	"26/8/2019 09:22:20"	"개인넣기"	"sunho123"	"294087532"	"유정우"	"294087692"	"순간이동 지배 Ring"	"0"	"1"
"332277"	"26/8/2019 09:22:53"	"개인넣기"	"sunho123"	"294087532"	"유정우"	"294087720"	"Blessed Magic Doll : Death Knight"	"0"	"1"
"332278"	"26/8/2019 09:22:53"	"개인넣기"	"sunho123"	"294087532"	"유정우"	"294087733"	"Magic Doll : Valakas"	"0"	"1"
"332279"	"26/8/2019 09:22:53"	"개인넣기"	"sunho123"	"294087532"	"유정우"	"294087739"	"Magic Doll : Antharas"	"0"	"1"
"332280"	"26/8/2019 09:22:53"	"개인넣기"	"sunho123"	"294087532"	"유정우"	"294087765"	"픽시의 Golden 깃털"	"0"	"10000662"
"332281"	"26/8/2019 10:01:59"	"개인넣기"	"sunho124"	"295013472"	"Warrior"	"295013856"	"Magic Doll : Antharas"	"0"	"1"
"332282"	"26/8/2019 10:01:59"	"개인넣기"	"sunho124"	"295013472"	"Warrior"	"294320618"	"Dark Spirit Crystal (아머 브레이크:데스티니)"	"0"	"1"
"332283"	"26/8/2019 10:01:59"	"개인넣기"	"sunho124"	"295013472"	"Warrior"	"295013842"	"Blessed Magic Doll : Demon"	"0"	"1"
"332284"	"26/8/2019 10:01:59"	"개인넣기"	"sunho124"	"295013472"	"Warrior"	"295013857"	"Blessed Magic Doll : Death Knight"	"0"	"1"
"332285"	"26/8/2019 10:01:59"	"개인넣기"	"sunho124"	"295013472"	"Warrior"	"295013858"	"Magic Doll : Valakas"	"0"	"1"
"332286"	"26/8/2019 10:01:59"	"개인넣기"	"sunho124"	"295013472"	"Warrior"	"295013871"	"Dark Spirit Crystal (아머 브레이크:데스티니)"	"0"	"1"
"332287"	"26/8/2019 10:01:59"	"개인넣기"	"sunho124"	"295013472"	"Warrior"	"295013872"	"Tech Book (Counter Barrier)"	"0"	"1"
"332288"	"26/8/2019 10:01:59"	"개인넣기"	"sunho124"	"295013472"	"Warrior"	"295013875"	"Tech Book (Counter Barrier)"	"0"	"1"
"332289"	"26/8/2019 10:02:21"	"개인넣기"	"sunho124"	"295013472"	"Warrior"	"294326866"	"Ancient 암석 각반"	"0"	"1"
"332290"	"26/8/2019 10:02:21"	"개인넣기"	"sunho124"	"295013472"	"Warrior"	"294326953"	"Ancient 마Water Gloves"	"0"	"1"
"332291"	"26/8/2019 10:02:33"	"개인넣기"	"sunho124"	"295013472"	"Warrior"	"294087691"	"Polymorph 지배 Ring"	"0"	"1"
"332292"	"26/8/2019 10:02:33"	"개인넣기"	"sunho124"	"295013472"	"Warrior"	"294087692"	"순간이동 지배 Ring"	"0"	"1"
"332293"	"26/8/2019 10:37:59"	"개인넣기"	"sunho124"	"295013472"	"Warrior"	"295013847"	"기백의 Ring"	"9"	"1"
"332294"	"26/8/2019 10:37:59"	"개인넣기"	"sunho124"	"295013472"	"Warrior"	"295013874"	"Warrior's 인장(데스페라도)"	"0"	"1"
"332295"	"26/8/2019 10:37:59"	"개인넣기"	"sunho124"	"295013472"	"Warrior"	"295013883"	"Warrior's 인장(데몰리션)"	"0"	"1"
"332296"	"27/8/2019 10:59:47"	"개인넣기"	"kswaa0"	"294282204"	"Death Knight"	"294276661"	"Ancient 암석 각반"	"9"	"1"
"332297"	"27/8/2019 10:59:47"	"개인넣기"	"kswaa0"	"294282204"	"Death Knight"	"294287424"	"Ancient 암석 Gloves"	"9"	"1"
"332298"	"27/8/2019 10:59:47"	"개인넣기"	"kswaa0"	"294282204"	"Death Knight"	"294287436"	"Ancient 암석 Boots"	"9"	"1"
"332299"	"27/8/2019 10:59:47"	"개인넣기"	"kswaa0"	"294282204"	"Death Knight"	"294287491"	"Ancient 암석 Cloak"	"9"	"1"
"332300"	"27/8/2019 11:00:30"	"개인넣기"	"kswaa0"	"294282204"	"Death Knight"	"294277219"	"Laia's Ring"	"9"	"1"
"332301"	"27/8/2019 11:00:30"	"개인넣기"	"kswaa0"	"294282204"	"Death Knight"	"294277218"	"Laia's Ring"	"9"	"1"
"332302"	"27/8/2019 11:01:43"	"개인넣기"	"kswaa0"	"294282204"	"Death Knight"	"294275217"	"Blessed Magic Doll : Death Knight"	"0"	"1"
"332303"	"27/8/2019 16:10:19"	"개인넣기"	"sunho124"	"295013472"	"Warrior"	"296100068"	"Tech Book (Counter Barrier)"	"0"	"1"
"332304"	"27/8/2019 16:10:19"	"개인넣기"	"sunho124"	"295013472"	"Warrior"	"296109085"	"Shining Saiha's Amulet"	"0"	"1"
"332305"	"27/8/2019 16:10:19"	"개인넣기"	"sunho124"	"295013472"	"Warrior"	"296109083"	"풍룡 Scale Mail"	"0"	"1"
"332306"	"27/8/2019 16:10:19"	"개인넣기"	"sunho124"	"295013472"	"Warrior"	"296109666"	"Knight Vald 각반"	"0"	"1"
"332307"	"27/8/2019 16:15:01"	"개인넣기"	"sunho124"	"295013472"	"Warrior"	"295013704"	"1억 Aden 수표"	"0"	"600"
"332308"	"27/8/2019 16:45:37"	"개인넣기"	"sunho124"	"295013472"	"Warrior"	"294087720"	"Blessed Magic Doll : Death Knight"	"0"	"1"
"332309"	"27/8/2019 16:45:37"	"개인넣기"	"sunho124"	"295013472"	"Warrior"	"296110726"	"Ancient 암석 각반"	"0"	"1"
"332310"	"27/8/2019 16:45:37"	"개인넣기"	"sunho124"	"295013472"	"Warrior"	"296111416"	"Magic Book (엠파이어)"	"0"	"1"
"332311"	"27/8/2019 16:45:37"	"개인넣기"	"sunho124"	"295013472"	"Warrior"	"296111414"	"마왕의 Ring"	"0"	"1"
"332312"	"27/8/2019 16:45:37"	"개인넣기"	"sunho124"	"295013472"	"Warrior"	"296111842"	"Magic Book (Disintegrate)"	"0"	"1"
"332313"	"27/8/2019 16:47:19"	"개인넣기"	"sunho124"	"295013472"	"Warrior"	"295013845"	"반역자의 Shield"	"9"	"1"
"332314"	"27/8/2019 16:47:19"	"개인넣기"	"sunho124"	"295013472"	"Warrior"	"295013853"	"Ancient 암석 각반"	"9"	"1"
"332315"	"27/8/2019 16:47:19"	"개인넣기"	"sunho124"	"295013472"	"Warrior"	"295013854"	"Ancient 마Water Gloves"	"9"	"1"
"332316"	"27/8/2019 16:47:19"	"개인넣기"	"sunho124"	"295013472"	"Warrior"	"295017231"	"Enchant Weapon Scroll"	"0"	"1000"
"332317"	"27/8/2019 16:47:19"	"개인넣기"	"sunho124"	"295013472"	"Warrior"	"295017182"	"Enchant Armor Scroll"	"0"	"800"
"332318"	"27/8/2019 16:47:19"	"개인넣기"	"sunho124"	"295013472"	"Warrior"	"296167375"	"Water Spirit Earrings"	"0"	"1"
"332319"	"27/8/2019 16:55:19"	"개인넣기"	"sunho124"	"295013472"	"Warrior"	"294087739"	"Magic Doll : Antharas"	"0"	"1"
"332320"	"28/8/2019 04:22:18"	"개인넣기"	"sunho125"	"296514034"	"용Knight"	"295013909"	"Fast Greater Healing Potion"	"0"	"1000"
"332321"	"28/8/2019 04:22:41"	"개인넣기"	"sunho125"	"296514034"	"용Knight"	"296167404"	"Enchant Weapon Scroll"	"0"	"1000"
"332322"	"28/8/2019 04:22:41"	"개인넣기"	"sunho125"	"296514034"	"용Knight"	"295039730"	"Dragon Heart"	"0"	"1"
"332323"	"28/8/2019 04:22:41"	"개인넣기"	"sunho125"	"296514034"	"용Knight"	"295013859"	"Polymorph 지배 Ring"	"0"	"1"
"332324"	"28/8/2019 04:22:41"	"개인넣기"	"sunho125"	"296514034"	"용Knight"	"295013870"	"순간이동 지배 Ring"	"0"	"1"
"332325"	"28/8/2019 04:23:43"	"개인넣기"	"sunho125"	"296514034"	"용Knight"	"296504843"	"Lindvior Heart"	"0"	"16"
"332326"	"28/8/2019 04:50:49"	"개인넣기"	"sunho124"	"295013472"	"Warrior"	"296504800"	"Enchant Armor Scroll"	"0"	"800"
"332327"	"28/8/2019 04:50:49"	"개인넣기"	"sunho124"	"295013472"	"Warrior"	"296504801"	"Enchant Armor Scroll"	"0"	"100"
"332328"	"28/8/2019 04:50:49"	"개인넣기"	"sunho124"	"295013472"	"Warrior"	"296504802"	"Enchant Armor Scroll"	"0"	"100"
"332329"	"28/8/2019 04:50:49"	"개인넣기"	"sunho124"	"295013472"	"Warrior"	"295013845"	"반역자의 Shield"	"9"	"1"
"332330"	"28/8/2019 04:50:49"	"개인넣기"	"sunho124"	"295013472"	"Warrior"	"296506921"	"환생의 보석"	"0"	"900"
"332331"	"28/8/2019 04:50:49"	"개인넣기"	"sunho124"	"295013472"	"Warrior"	"296515777"	"Valakas Heart"	"0"	"1"
"332332"	"28/8/2019 04:50:49"	"개인넣기"	"sunho124"	"295013472"	"Warrior"	"295039730"	"Dragon Heart"	"0"	"1"
"332333"	"28/8/2019 04:57:25"	"개인넣기"	"sunho124"	"295013472"	"Warrior"	"295017231"	"Enchant Weapon Scroll"	"0"	"1000"
"332334"	"28/8/2019 10:39:07"	"개인넣기"	"sunho111"	"296541809"	"빨간불"	"296543133"	"Fast Greater Healing Potion"	"0"	"1111"
"332335"	"31/8/2019 15:29:48"	"개인넣기"	"gm123"	"288384844"	"21132132"	"288602272"	"Kurtz's Sword"	"9"	"1"
"332336"	"31/8/2019 15:39:49"	"개인넣기"	"gm123"	"288384844"	"21132132"	"288384853"	"Adena"	"0"	"370000000"
"332337"	"31/8/2019 15:39:49"	"개인넣기"	"gm123"	"288384844"	"21132132"	"300265417"	"TOI 8층 이동주문서"	"0"	"1"
"332338"	"2/9/2019 18:20:11"	"개인넣기"	"sunho124"	"295013472"	"Warrior"	"294087765"	"픽시의 Golden 깃털"	"0"	"348"
"332339"	"2/9/2019 18:20:11"	"개인넣기"	"sunho124"	"295013472"	"Warrior"	"295013909"	"Fast Greater Healing Potion"	"0"	"119"
"332340"	"2/9/2019 18:35:38"	"개인넣기"	"gm123"	"288384844"	"21132132"	"300264495"	"듀크데필의 Dagger"	"9"	"1"
"332341"	"3/9/2019 12:34:31"	"개인넣기"	"tlsrb123"	"303650062"	"신규용레기"	"303650066"	"Teleport Scroll"	"0"	"490"
"332342"	"3/9/2019 12:35:56"	"개인넣기"	"tlsrb123"	"303650062"	"신규용레기"	"303650065"	"Fast Healing Potion"	"0"	"98"
"332343"	"3/9/2019 12:35:56"	"개인넣기"	"tlsrb123"	"303650062"	"신규용레기"	"303650341"	"Templar's Ring"	"0"	"1"
"332344"	"3/9/2019 12:35:56"	"개인넣기"	"tlsrb123"	"303650062"	"신규용레기"	"303650342"	"Templar's Earrings"	"0"	"1"
"332345"	"3/9/2019 12:35:56"	"개인넣기"	"tlsrb123"	"303650062"	"신규용레기"	"303650343"	"Templar's Necklace"	"0"	"1"
"332346"	"3/9/2019 12:35:56"	"개인넣기"	"tlsrb123"	"303650062"	"신규용레기"	"303650344"	"Templar's Belt"	"0"	"1"
"332347"	"3/9/2019 12:35:56"	"개인넣기"	"tlsrb123"	"303650062"	"신규용레기"	"303650345"	"Templar's Cloak"	"4"	"1"
"332348"	"3/9/2019 12:35:56"	"개인넣기"	"tlsrb123"	"303650062"	"신규용레기"	"303650536"	"Templar's 각반"	"0"	"1"
"332349"	"3/9/2019 12:36:02"	"개인넣기"	"tlsrb123"	"303650062"	"신규용레기"	"303650066"	"Teleport Scroll"	"0"	"490"
"332350"	"16/10/2019 00:54:48"	"개인넣기"	"skssnrn8"	"305521912"	"막부"	"307444568"	"지배의 탑 10층 이동 Scroll"	"0"	"4"
"332351"	"20/10/2019 13:02:56"	"개인넣기"	"skssnrn8"	"305521912"	"막부"	"308426304"	"Magic Book (True Target)"	"0"	"1"
"332352"	"28/1/2020 23:09:44"	"개인넣기"	"wjsghdgjs"	"1193643740"	"2빠"	"1193644025"	"Templar's Condensed Orange Potion"	"0"	"400"
"332353"	"29/1/2020 20:42:22"	"개인넣기"	"wjsghdgjs"	"1193643740"	"2빠"	"1193644869"	"Antharas Strength"	"0"	"1"
"332354"	"29/1/2020 20:42:22"	"개인넣기"	"wjsghdgjs"	"1193643740"	"2빠"	"1193644870"	"Lindvior Strength"	"0"	"1"
"332355"	"29/1/2020 20:42:22"	"개인넣기"	"wjsghdgjs"	"1193643740"	"2빠"	"1193644873"	"Fafurion Strength"	"0"	"1"
"332356"	"29/1/2020 20:42:22"	"개인넣기"	"wjsghdgjs"	"1193643740"	"2빠"	"1193644876"	"Valakas Strength"	"0"	"1"
"332357"	"30/1/2020 13:23:18"	"개인넣기"	"dhb1101"	"1193320879"	"두현검사"	"1194085926"	"Halphas' 예지력"	"10"	"1"
"332358"	"30/1/2020 13:26:30"	"개인넣기"	"dhb1101"	"1193320879"	"두현검사"	"1194085982"	"Halphas' 마력"	"10"	"1"
"332359"	"16/4/2020 07:34:46"	"개인넣기"	"xhdhk12"	"1214412246"	"활요정"	"1214358918"	"방어구100%"	"0"	"97"
"332360"	"16/4/2020 07:34:46"	"개인넣기"	"xhdhk12"	"1214412246"	"활요정"	"1214471369"	"무기100%"	"0"	"60"
"332361"	"16/4/2020 07:34:46"	"개인넣기"	"xhdhk12"	"1214412246"	"활요정"	"1214414236"	"100% 축복 Spell Scroll"	"0"	"8"
"332362"	"16/4/2020 07:34:46"	"개인넣기"	"xhdhk12"	"1214412246"	"활요정"	"1214413322"	"100% Wind 속성 Greater Scroll"	"0"	"45"
"332363"	"16/4/2020 07:34:46"	"개인넣기"	"xhdhk12"	"1214412246"	"활요정"	"1214413333"	"100% Water 속성 Greater Scroll"	"0"	"40"
"332364"	"16/4/2020 07:34:46"	"개인넣기"	"xhdhk12"	"1214412246"	"활요정"	"1214413334"	"100% Earth 속성 Greater Scroll"	"0"	"35"
"332365"	"16/4/2020 07:34:46"	"개인넣기"	"xhdhk12"	"1214412246"	"활요정"	"1214413335"	"100% Fire 속성 Greater Scroll"	"0"	"45"
"332366"	"16/4/2020 07:34:46"	"개인넣기"	"xhdhk12"	"1214412246"	"활요정"	"1214413336"	"100% 추타 Greater Scroll"	"0"	"32"
"332367"	"14/5/2020 09:53:09"	"개인넣기"	"hwan0127"	"1217137634"	"군주다"	"1217678267"	"Halphas' Strength"	"0"	"1"
"332368"	"14/5/2020 09:53:56"	"개인넣기"	"hwan0127"	"1217137634"	"군주다"	"1217543289"	"흑룡의 마안"	"0"	"1"
"332369"	"14/5/2020 17:37:59"	"개인넣기"	"hwan0127"	"1217137634"	"군주다"	"1220299508"	"Polymorph 지배 Ring"	"0"	"1"
