"char_name"	"box_id"	"box_name"	"count"
"1111"	"435007"	"Deathmatch Giftbox"	"9"
"1111"	"55555"	"홍보상자"	"22"
"활요정"	"888820"	"영웅 지원 Box"	"1"
"활요정"	"66792"	"고정 보상 요정"	"1"
"활요정"	"888812"	"고정신청 선물"	"1"
"활요정"	"435004"	"Aurakia's 선물상자"	"1"
"활요정"	"435005"	"Shilen's 선물상자"	"1"
"활요정"	"60331"	"황금 Box"	"1"
