"npc_id"	"name"	"type"	"locx"	"locy"	"mapid"	"heading"	"title"	"gfxid"	"lawful"	"chat_msg"
"100017"	"농협김비서"	"0"	"33444"	"32811"	"4"	"4"	"\f3농협위원회"	"37"	"32767"	""
"100017"	"농협이비서"	"0"	"33445"	"32811"	"4"	"4"	"\f3농협위원회"	"37"	"32767"	""
"100017"	"농협황비서"	"0"	"33446"	"32811"	"4"	"4"	"\f3농협위원회"	"37"	"32767"	""
"100017"	"농협장비서"	"0"	"33444"	"32814"	"4"	"4"	"\f3농협위원회"	"37"	"32767"	""
"100017"	"농협박비서"	"0"	"33445"	"32814"	"4"	"4"	"\f3농협위원회"	"37"	"32767"	""
"100017"	"농협신비서"	"0"	"33446"	"32814"	"4"	"4"	"\f3농협위원회"	"37"	"32767"	""
"100017"	"삐끼1"	"1"	"33420"	"32830"	"4"	"6"	"\f4사장님팁좀!"	"37"	"32767"	""
"100017"	"삐끼2"	"1"	"33420"	"32831"	"4"	"6"	"\f4사장님팁좀!"	"37"	"32767"	""
"100017"	"삐끼3"	"1"	"33420"	"32832"	"4"	"6"	"\f4사장님팁좀!"	"37"	"32767"	""
"100017"	"삐끼4"	"1"	"33423"	"32830"	"4"	"6"	"\f4사장님팁좀!"	"37"	"32767"	""
"100017"	"삐끼5"	"1"	"33423"	"32831"	"4"	"6"	"\f4사장님팁좀!"	"37"	"32767"	""
"100017"	"삐끼6"	"1"	"33423"	"32832"	"4"	"6"	"\f4사장님팁좀!"	"37"	"32767"	""
"100017"	"웨이터김"	"0"	"33444"	"32817"	"4"	"4"	"\f>원샷하세요!"	"138"	"32767"	""
"100017"	"웨이터이"	"0"	"33445"	"32817"	"4"	"4"	"\f>원샷하세요!"	"138"	"32767"	""
"100017"	"웨이터윤"	"0"	"33446"	"32817"	"4"	"4"	"\f>원샷하세요!"	"138"	"32767"	""
"100017"	"웨이터장"	"0"	"33446"	"32819"	"4"	"4"	"\f>원샷하세요!"	"138"	"32767"	""
"100017"	"웨이터마"	"0"	"33445"	"32819"	"4"	"4"	"\f>원샷하세요!"	"138"	"32767"	""
"100017"	"웨이터박"	"0"	"33444"	"32819"	"4"	"4"	"\f>원샷하세요!"	"138"	"32767"	""
"100017"	"강원랜드2호"	"1"	"33432"	"32829"	"4"	"6"	"\f=<<<1호에게!"	"138"	"32767"	""
"100017"	"강원랜드3호"	"1"	"33432"	"32830"	"4"	"6"	"\f=<<<1호에게!"	"138"	"32767"	""
"100017"	"강원랜드4호"	"1"	"33432"	"32831"	"4"	"6"	"\f=<<<1호에게!"	"138"	"32767"	""
"100017"	"강원랜드5호"	"1"	"33435"	"32829"	"4"	"6"	"\f=<<<1호에게!"	"138"	"32767"	""
"100017"	"강원랜드6호"	"1"	"33435"	"32830"	"4"	"6"	"\f=<<<1호에게!"	"138"	"32767"	""
"100017"	"강원랜드7호"	"1"	"33435"	"32831"	"4"	"6"	"\f=<<<1호에게!"	"138"	"32767"	""
"100017"	"풀기의달인"	"0"	"33414"	"32812"	"4"	"4"	"초반부터장난질?"	"37"	"32767"	""
"100017"	"먹기의달인"	"0"	"33415"	"32812"	"4"	"4"	"초반부터장난질?"	"37"	"32767"	""
"100017"	"넣기의달인"	"0"	"33416"	"32812"	"4"	"4"	"초반부터장난질?"	"37"	"32767"	""
"100017"	"잠수의달인"	"0"	"33414"	"32809"	"4"	"4"	"초반부터장난질?"	"37"	"32767"	""
"100017"	"치기의달인"	"0"	"33415"	"32809"	"4"	"4"	"초반부터장난질?"	"37"	"32767"	""
"100017"	"도망의달인"	"0"	"33416"	"32809"	"4"	"4"	"초반부터장난질?"	"37"	"32767"	""
