"uid"	"type"	"ment"
"1"	"die"	"아 시발"
"2"	"pvp"	""
"3"	"die"	"ㅠㅠ"
"4"	"pvp"	"개짜증이네"
"5"	"die"	"시발새끼야"
"6"	"pvp"	"아나.."
"7"	"die"	"아후. 짜증.."
"8"	"pvp"	"?"
"9"	"die"	"?"
"10"	"pvp"	"?"
"11"	"die"	"ㅋㅋㅋ"
"12"	"pvp"	"볍진"
"13"	"die"	"에라 허접아 ㅋ"
"14"	"pvp"	"ㅋㅋㅋ"
"15"	"die"	"?"
"16"	"pvp"	"ㅌㅌㅌ"
"17"	"die"	"시발"
"18"	"pvp"	"ㅎㄷㄷ"
"19"	"die"	"ㄴㅁ"
"20"	"pvp"	"무슨일이죠?"
"21"	"die"	"그만하시죠?"
"22"	"pvp"	"척살이다."
"23"	"die"	" "
"24"	"pvp"	"중재"
"25"	"die"	" "
"26"	"pvp"	"?"
"27"	"die"	"ㅠㅠ"
"28"	"pvp"	"ㅠㅠ"
"29"	"die"	"ㅠㅠㅋ"
"30"	"pvp"	"아나 ㅡㅡ;"
"31"	"die"	" "
"32"	"pvp"	"장난까나"
"33"	"die"	" "
"34"	"pvp"	"High요."
"35"	"die"	"ㅋㅋ"
"36"	"pvp"	"후아 심심하네"
"37"	"die"	"ㅁㅁㅁ"
"38"	"pvp"	"뮨"
"39"	"die"	"뮨뮨"
"40"	"pvp"	"Lesser Heal"
"41"	"die"	"힐좀.."
"42"	"pvp"	"쳐"
"43"	"die"	" "
"44"	"pvp"	"한놈씩 와라"
"45"	"die"	"다굴치지마라."
"46"	"pvp"	"나한테 되겠냐?"
"47"	"die"	" "
"48"	"pvp"	"ㄱㄱ"
"49"	"die"	" "
"50"	"pvp"	"후달리냐?"
"51"	"die"	" "
"52"	"pvp"	"야 베르해 ㅋ"
"53"	"die"	" "
"54"	"pvp"	"꺼져.."
"55"	"die"	" "
"56"	"pvp"	"??"
"57"	"die"	"  "
"58"	"pvp"	"와봐라."
"59"	"die"	"????"
"60"	"pvp"	"한바리 하자"
"61"	"die"	"들이대보세요 ㅋ"
"62"	"pvp"	"현질이구만ㅡ.ㅡ"
"63"	"die"	"제조?ㅋㅋㅋㅋ"
"64"	"pvp"	"괜히 나댔네"
"65"	"die"	"ㅅㅂ"
"66"	"pvp"	"?"
"67"	"die"	"아파요 ㅠㅠ"
"68"	"pvp"	"?"
"69"	"die"	"?"
"70"	"pvp"	"노M이신가..."
"71"	"die"	" "
"72"	"pvp"	"?"
"73"	"die"	""
"74"	"pvp"	"?"
"75"	"die"	" "
"76"	"pvp"	"?"
"77"	"die"	" "
"78"	"pvp"	"?"
"79"	"die"	" "
"80"	"pvp"	"?"
"81"	"die"	"아 씁.."
"82"	"pvp"	"님 제발 살려주세요.ㅠㅠ"
"83"	"die"	"ㅡㅡ;"
"84"	"pvp"	"아 사기다 사기..."
"85"	"die"	"야이 시발놈아"
"86"	"pvp"	"?"
"87"	"die"	" "
"88"	"pvp"	"?"
"89"	"die"	" "
"90"	"pvp"	"High요."
"91"	"die"	"네, 방가~^^"
"92"	"pvp"	"??"
"93"	"die"	" "
"94"	"pvp"	"노M이신가..."
"95"	"die"	" "
"96"	"pvp"	"?"
"97"	"die"	" "
"98"	"pvp"	"?"
"99"	"die"	" "
"100"	"pvp"	"앵간히 다굴쳐라."
"101"	"die"	"1:1로하자"
"102"	"pvp"	"레벨이나 올리고 와 ㅋ"
"103"	"die"	"간지럽다 ㅋㅋ"
"104"	"pvp"	" 지금 똥줄탄다 ㅋㅋ"
"105"	"die"	" "
"106"	"pvp"	"애들 대꾸 와라."
"107"	"die"	" "
"108"	"pvp"	"니네안대ㅋ"
"109"	"die"	"베르하는게 좋을텐데 ㅋ"
"110"	"pvp"	"??"
"111"	"die"	"한테 대박나왔슴 ㅋ"
"112"	"pvp"	"??"
"113"	"die"	" "
"114"	"pvp"	"??"
"115"	"die"	"끝! Old Beggar ㅠ.ㅜ"
"116"	"pvp"	"??"
"117"	"die"	" "
"118"	"pvp"	"??"
"119"	"die"	" "
"120"	"pvp"	"??"
"121"	"die"	"ㅋㅋ 발견! "
"122"	"pvp"	"??"
"123"	"die"	" "
"124"	"pvp"	"??"
"125"	"die"	" "
"126"	"pvp"	"??"
"127"	"die"	" "
"128"	"pvp"	"??"
"129"	"die"	"아놔 ㅡ.ㅡ"
"130"	"pvp"	"??"
"131"	"die"	"아 거지같네 진짜 ㅅㅂ"
"132"	"pvp"	"머야?"
"133"	"die"	"아 ㅅ/ㅂ"
"134"	"pvp"	"??"
"135"	"die"	"ㅡㅡ 왜 나만죽노?"
"136"	"pvp"	"??"
"137"	"die"	"렉 뭐고 연병할 죽었자나 꼴받네"
"138"	"pvp"	"님 장난?"
"139"	"die"	"ㅆ ㅣ ㅂ ㅏ"
"140"	"pvp"	"미쳐뿐다..."
"141"	"die"	"아 뭐야 ㅡㅡ"
"142"	"pvp"	"짱나네"
"143"	"die"	"아오 ㅡㅡ"
"144"	"pvp"	"??"
"145"	"die"	" "
"146"	"pvp"	"아 거지같아서 못해먹겠네"
"147"	"die"	"아 열받아..."
"148"	"pvp"	"ㅆ ㅣ ㅂ ㅏ  "
"149"	"die"	"미치ㅋ"
"150"	"pvp"	"아~~~~~ ㅅㅂ"
"151"	"die"	"야이 쇼키들아 아오!!"
"152"	"pvp"	"아............."
"153"	"die"	"죽었네 ㅋㅋ"
"154"	"pvp"	"아ㅋㅋ 또누웠네"
"155"	"die"	"아 조 또  ㅅㅂ"
