"uid"	"name"
"1"	"날개"
"2"	"축하사절"
"3"	"사절"
"4"	"갱비원"
"5"	"칙촉"
"6"	"페이스"
"7"	"메이컹"
"8"	"유알아"
"9"	"페미소스"
"10"	"승민수"
"11"	"쏭쏭이"
"12"	"쭈리미"
"13"	"카이완"
"14"	"백선생"
"15"	"이육민"
"16"	"라면밥"
"17"	"병기통"
"18"	"성시민"
"19"	"이선진"
"20"	"High완"
"21"	"출하"
"22"	"사던보스"
"23"	"육하원칙"
"24"	"김승일"
"25"	"원턴원킬"
"26"	"스톱민"
"27"	"둘리"
"28"	"형아야"
"29"	"카톡제왕"
"30"	"달인의향"
"31"	"형사"
"32"	"검사"
"33"	"느시"
"34"	"판사"
"35"	"나비"
"36"	"나비야"
"37"	"도롱뇽"
"38"	"곤충"
"39"	"파브르"
"40"	"백호"
"41"	"충일"
"42"	"충치"
"43"	"변기통"
"44"	"새가슴"
"45"	"슴가"
"46"	"백진호"
"47"	"육민이"
"48"	"팔불출"
"49"	"구백호"
"50"	"성진우"
"51"	"천재"
"52"	"바보"
"53"	"멍청이"
"54"	"대스"
"55"	"해꼴"
"56"	"꼴깝"
"57"	"천의얼굴"
"58"	"천의검"
"59"	"니가뭔데"
"60"	"니꺼내꺼"
"61"	"니들은안되"
"62"	"니마"
"63"	"니아"
"64"	"니콜라스"
"65"	"닉키"
"66"	"다니카"
"67"	"Daria"
"68"	"다리오"
"69"	"다린"
"70"	"Davia"
"71"	"다비드"
"72"	"다윈"
"73"	"다음"
"74"	"Diana"
"75"	"단풍나무막대"
"76"	"달리"
"77"	"달의눈동자"
"78"	"대표"
"79"	"대학생"
"80"	"더글라스"
"81"	"더스틴"
"82"	"덤트레닝키스"
"83"	"Denis"
"84"	"데리"
"85"	"데미지"
"86"	"데바"
"87"	"데스니티"
"88"	"Dave"
"89"	"Daisy"
"90"	"덱스터"
"91"	"덴버"
"92"	"델라"
"93"	"델링"
"94"	"델핀"
"95"	"Dorothy"
"96"	"Doris"
"97"	"도망가지마"
"98"	"도요타"
"99"	"독고다이"
"100"	"드래곤"
"101"	"디노"
"102"	"디스"
"103"	"디알로"
"104"	"디즈니"
"105"	"딕시"
"106"	"딜리스"
"107"	"딥키스"
"108"	"라니"
"109"	"라라"
"110"	"라미스"
"111"	"라비나"
"112"	"라스베가스"
"113"	"라키아"
"114"	"랄라"
"115"	"래피"
"116"	"레브"
"117"	"레스러키스"
"118"	"레오"
"119"	"레오폴드"
"120"	"레이첼"
"121"	"렉서스"
"122"	"렐리아"
"123"	"로니"
"124"	"로미오"
"125"	"로웰"
"126"	"로이드"
"127"	"로즈메리"
"128"	"Rotus"
"129"	"로티"
"130"	"롱키스"
"131"	"Ruby"
"132"	"루시"
"133"	"루시아"
"134"	"루시퍼"
"135"	"Louis"
"136"	"Lucas"
"137"	"Lina"
"138"	"리디아"
"139"	"리사"
"140"	"린다"
"141"	"릴리"
"142"	"마가레트"
"143"	"마나"
"144"	"마농"
"145"	"마돈나"
"146"	"마르시아"
"147"	"마마보이"
"148"	"마벨"
"149"	"Marshall"
"150"	"Maya"
"151"	"마이클"
"152"	"마이티"
"153"	"마카이오"
"154"	"Matilda"
"155"	"말하는섬"
"156"	"말할때들어라"
"157"	"머라카노"
"158"	"머피"
"159"	"머핀"
"160"	"메리엘"
"161"	"메지션"
"162"	"멕라렌"
"163"	"멜리나"
"164"	"Melissa"
"165"	"모네"
"166"	"모니카"
"167"	"Morris"
"168"	"Molly"
"169"	"무르다"
"170"	"무사무사"
"171"	"무협"
"172"	"뮬란"
"173"	"미남미녀"
"174"	"미니"
"175"	"미니스커트"
"176"	"Miranda"
"177"	"미스티"
"178"	"미시"
"179"	"미키"
"180"	"바네사"
"181"	"바니"
"182"	"바론"
"183"	"바바"
"184"	"Barbara"
"185"	"바비"
"186"	"바실"
"187"	"바이올렛"
"188"	"바이퍼"
"189"	"바캉스"
"190"	"바포"
"191"	"박스터"
"192"	"박현정"
"193"	"발디"
"194"	"Valentines Day"
"195"	"발리"
"196"	"밤비"
"197"	"방송걸"
"198"	"백호"
"199"	"버그"
"200"	"버드키스"
"201"	"베네치아"
"202"	"베르할래"
"203"	"베베"
"204"	"베시"
"205"	"베아트리스"
"206"	"베이비키스"
"207"	"베일리"
"208"	"Becky"
"209"	"벤츠"
"210"	"벤틀리"
"211"	"벨리타"
"212"	"보노"
"213"	"보노보노"
"214"	"보니타"
"215"	"보리스"
"216"	"보물섬"
"217"	"보스"
"218"	"부끄러워"
"219"	"불패"
"220"	"브라이트"
"221"	"Bruno"
"222"	"브팅키스"
"223"	"블론디"
"224"	"블리스"
"225"	"비비안"
"226"	"비안나"
"227"	"비앙카"
"228"	"비와당신"
"229"	"비트"
"230"	"빅토리아"
"231"	"빌리"
"232"	"빙고"
"233"	"빛보다빠르다"
"234"	"Sarah"
"235"	"사랑한다"
"236"	"사브리나"
"237"	"사비나"
"238"	"사이클론"
"239"	"살살해줘"
"240"	"새키스"
"241"	"서현"
"242"	"세바스챤"
"243"	"센스"
"244"	"셀레스틴"
"245"	"Celina"
"246"	"소나"
"247"	"소녀시대"
"248"	"Sophia"
"249"	"손만잡구잘게"
"250"	"수성"
"251"	"수영"
"252"	"스카이프"
"253"	"스타"
"254"	"스타벅스"
"255"	"스타워즈"
"256"	"Stella"
"257"	"슬라이딩키스"
"258"	"시저"
"259"	"싹조져"
"260"	"Jeffrey"
"261"	"아가사"
"262"	"Agata"
"263"	"아그네스"
"264"	"아나이스"
"265"	"아놀드"
"266"	"Adelio"
"267"	"아도니스"
"268"	"아도라"
"269"	"아돌프"
"270"	"아라비안"
"271"	"아리스타"
"272"	"Amanda"
"273"	"아모스"
"274"	"아미"
"275"	"Ava"
"276"	"Abel"
"277"	"아비드"
"278"	"Asha"
"279"	"Aster"
"280"	"아스틴"
"281"	"아시아"
"282"	"아이"
"283"	"아이다"
"284"	"아이라인"
"285"	"Iris"
"286"	"아이스키스"
"287"	"아잉"
"288"	"아크스카우터"
"289"	"아테나"
"290"	"악검"
"291"	"안나"
"292"	"안녕하세요"
"293"	"안드라"
"294"	"Angelica"
"295"	"안토니"
"296"	"알란"
"297"	"알렉산드라"
"298"	"Alex"
"299"	"알로하"
"300"	"Alri"
"301"	"알바생"
"302"	"Alfred"
"303"	"애기"
"304"	"애니"
"305"	"애니카"
"306"	"애드워드"
"307"	"애스터"
"308"	"Andrew"
"309"	"앤디"
"310"	"앨리쉬"
"311"	"Alice"
"312"	"어벤좀줘"
"313"	"어스좀주라고"
"314"	"에단"
"315"	"에덴"
"316"	"에델린"
"317"	"에드윈"
"318"	"에디스"
"319"	"에로스"
"320"	"에리스"
"321"	"에릭"
"322"	"에밀리"
"323"	"Eva"
"324"	"Evan"
"325"	"Ebony"
"326"	"에스더"
"327"	"에스테반"
"328"	"에어클링키스"
"329"	"에이미"
"330"	"에일린"
"331"	"에코"
"332"	"엔젤"
"333"	"엔터테인먼트"
"334"	"엘도라"
"335"	"엘로이"
"336"	"엘르"
"337"	"엘리사"
"338"	"엘리스"
"339"	"엘리시아"
"340"	"Elizabeth"
"341"	"엘린"
"342"	"엘비스"
"343"	"엘사"
"344"	"Elf"
"345"	"Emma"
"346"	"여대생"
"347"	"연합군단"
"348"	"연합책사"
"349"	"연합노을"
"350"	"연합단결"
"351"	"연합돌진"
"352"	"연합마음"
"353"	"연합바다"
"354"	"연합승리"
"355"	"연합우리"
"356"	"연합의검"
"357"	"연합의리"
"358"	"연합의지"
"359"	"연합입성"
"360"	"연합자객"
"361"	"연합지휘"
"362"	"연합투지"
"363"	"연합폭풍"
"364"	"연합필드"
"365"	"연합하나"
"366"	"연합하늘"
"367"	"영원한건없다"
"368"	"영화배우"
"369"	"오디오"
"370"	"Oren"
"371"	"Aurora"
"372"	"오마이러브"
"373"	"오빠믿지"
"374"	"욱장군"
"375"	"위니"
"376"	"위대한나"
"377"	"유리"
"378"	"유투브"
"379"	"응큼한Cat"
"380"	"이느네"
"381"	"이등병"
"382"	"이레인"
"383"	"이리나"
"384"	"Eve"
"385"	"이쁘지나"
"386"	"이사도라"
"387"	"Isabelle"
"388"	"이시스"
"389"	"이어키스"
"390"	"이자벨"
"391"	"이팅키스"
"392"	"인디라"
"393"	"인사이드키스"
"394"	"인터넷"
"395"	"인피니티"
"396"	"일리아나"
"397"	"Ingrid"
"398"	"자네검은뭔가"
"399"	"자명고"
"400"	"잘난척즐이다"
"401"	"장동건"
"402"	"Jackson"
"403"	"쟈스민"
"404"	"전투용병"
"405"	"전화키스"
"406"	"접근금지"
"407"	"정우성"
"408"	"Jennifer"
"409"	"Jeremy"
"410"	"Zero"
"411"	"제리"
"412"	"Jericho"
"413"	"제스"
"414"	"Buruel"
"415"	"Jessy"
"416"	"Jessica"
"417"	"제이드"
"418"	"제이스"
"419"	"Jane"
"420"	"제프리"
"421"	"젬마"
"422"	"조디"
"423"	"조르단"
"424"	"Joanna"
"425"	"Joe"
"426"	"Joy"
"427"	"조인성"
"428"	"조지"
"429"	"졸리"
"430"	"좋은하루"
"431"	"주둥이파이터"
"432"	"Juice"
"433"	"Julia"
"434"	"줄리엣"
"435"	"중혼지존"
"436"	"쥬드"
"437"	"Master"
"438"	"지오반니"
"439"	"착하게살자"
"440"	"찬란한유산"
"441"	"찰스"
"442"	"청파"
"443"	"Chase"
"444"	"초이스"
"445"	"초지일관"
"446"	"chocolate"
"447"	"카라"
"448"	"카레나"
"449"	"카르멘"
"450"	"카리스"
"451"	"Kamyla"
"452"	"카시아"
"453"	"카오스"
"454"	"카즈야"
"455"	"칼라"
"456"	"칼리"
"457"	"칼리아"
"458"	"칼릭스"
"459"	"Catherine"
"460"	"캔디키스"
"461"	"캡틴"
"462"	"Kerry"
"463"	"Kevin"
"464"	"케이트"
"465"	"켈란"
"466"	"켈리"
"467"	"코델리아"
"468"	"코디"
"469"	"코리"
"470"	"코리아"
"471"	"코이"
"472"	"콜벳"
"473"	"쿠키"
"474"	"Kuper"
"475"	"큐티"
"476"	"큐피트"
"477"	"크로스키스"
"478"	"크리스탈"
"479"	"크리스핀"
"480"	"크림슨"
"481"	"클라우스"
"482"	"클로버"
"483"	"클릭"
"484"	"키라"
"485"	"키티"
"486"	"태양"
"487"	"태연"
"488"	"터보"
"489"	"Rengo"
"490"	"텔레토비"
"491"	"투명화살"
"492"	"투스카니"
"493"	"튜닝"
"494"	"Tiffany"
"495"	"파도"
"496"	"파랑새"
"497"	"파렐"
"498"	"파비앙"
"499"	"파이터"
"500"	"퍼펙트"
"501"	"페도라"
"502"	"페라리"
"503"	"펠라"
"504"	"펠리체"
"505"	"Felix"
"506"	"평화부군"
"507"	"평화나라"
"508"	"평화단결"
"509"	"평화바다"
"510"	"평화사랑"
"511"	"평화세계"
"512"	"평화소리"
"513"	"평화Elf"
"514"	"평화용맹"
"515"	"평화용사"
"516"	"평화인사"
"517"	"평화인연"
"518"	"평화장군"
"519"	"평화쟁취"
"520"	"평화지휘"
"521"	"평화천하"
"522"	"평화통일"
"523"	"평화투사"
"524"	"평화평정"
"525"	"평화필드"
"526"	"평화하트"
"527"	"평화희망"
"528"	"포레버"
"529"	"포레스트"
"530"	"포르쉐"
"531"	"Fox바겐"
"532"	"푸른바다"
"533"	"푸조"
"534"	"프렌치키스"
"535"	"프리"
"536"	"프리걸"
"537"	"프리맨"
"538"	"프린세스"
"539"	"플레이어"
"540"	"플레타"
"541"	"플로렌스"
"542"	"플로리아"
"543"	"피델리오"
"544"	"피오라노"
"545"	"필리아"
"546"	"하늘아래나"
"547"	"하늘풍경"
"548"	"하얀바다"
"549"	"한국"
"550"	"한지혜"
"551"	"할로나"
"552"	"할리"
"553"	"Halphas"
"554"	"해롤드"
"555"	"Harry"
"556"	"Happy"
"557"	"햄버거키스"
"558"	"행운"
"559"	"허니"
"560"	"Hera"
"561"	"헤바"
"562"	"헤스티아"
"563"	"Helen"
"564"	"헬리아"
"565"	"현역"
"566"	"혜성"
"567"	"호떡"
"568"	"호프"
"569"	"홀리스"
"570"	"White Day"
"571"	"효연"
"572"	"휴버트"
"573"	"휴이"
"574"	"Black Elder"
"575"	"희망"
"576"	"히어로"
"577"	"짜장면"
"578"	"짬뽕"
"579"	"우동"
"580"	"간짜장"
"581"	"울면"
"582"	"삼선짜장"
"583"	"삼선간짜장"
"584"	"삼선우동"
"585"	"삼선울면"
"586"	"백짬뽕"
"587"	"기스면"
"588"	"사천짜장"
"589"	"유니짜장"
"590"	"탕면"
"591"	"짜장밥"
"592"	"짬뽕밥"
"593"	"볶음밥"
"594"	"잡채밥"
"595"	"삼선볶음밥"
"596"	"삼선짬뽕밥"
"597"	"새우볶음밥"
"598"	"오향장육"
"599"	"불도장"
"600"	"호유청경채"
"601"	"군만두"
"602"	"물만두"
"603"	"꽃빵"
"604"	"이과두주"
"605"	"공부가주"
"606"	"죽엽청주"
"607"	"탕수육"
"608"	"깐풍기"
"609"	"라조기"
"610"	"양장피"
"611"	"팔보채"
"612"	"유산슬"
"613"	"깐쇼새우"
"614"	"깐풍새우"
"615"	"고추잡채"
"616"	"난자완스"
"617"	"라조육"
"618"	"깐풍육"
"619"	"마파두부"
"620"	"삼선탕"
"621"	"궁보기정"
"622"	"해삼탕"
"623"	"짬짜면"
"624"	"쟁반짜장"
"625"	"탕볶밥"
"626"	"탕짜면"
"627"	"탕짬면"
"628"	"볶짜면"
"629"	"고량주"
"630"	"칠리새우"
"631"	"삼선누룽지탕"
"632"	"야끼만두"
"633"	"오징어탕수육"
"634"	"내장탕"
"635"	"동파육"
"636"	"해물누룽지탕"
"637"	"귀산"
"638"	"김유신"
"639"	"추항"
"640"	"원효"
"641"	"미시랑"
"642"	"반굴"
"643"	"관창"
"644"	"원술랑"
"645"	"이사부"
"646"	"사다함"
"647"	"김춘추"
"648"	"호재"
"649"	"석품"
"650"	"덕충"
"651"	"알천"
"652"	"박의"
"653"	"필탄"
"654"	"임종"
"655"	"선열"
"656"	"왕윤"
"657"	"대남보"
"658"	"대박버프"
"659"	"이쁜이"
"660"	"미소녀"
"661"	"다롱이"
"662"	"행운버프"
"663"	"완소녀"
"664"	"모델녀"
"665"	"초롱이"
"666"	"행운군주"
"667"	"러블리"
"668"	"아롱이"
"669"	"Ac"
"670"	"Alucard"
"671"	"Angel"
"672"	"AS"
"673"	"ASD"
"674"	"BMW"
"675"	"Boss"
"676"	"CK"
"677"	"Crack"
"678"	"Dansun"
"679"	"Dark"
"680"	"Dex"
"681"	"Dior"
"682"	"Elf"
"683"	"F4"
"684"	"Foxhunter"
"685"	"Go"
"686"	"HP"
"687"	"Iloevyou"
"688"	"Insomnia"
"689"	"INT"
"690"	"Jr"
"691"	"Kaizer"
"692"	"King"
"693"	"Lineage"
"694"	"Lost"
"695"	"Me"
"696"	"Mildseven"
"697"	"Moto"
"698"	"My"
"699"	"Nei"
"700"	"Neil"
"701"	"NPC"
"702"	"Ob"
"703"	"Rose"
"704"	"Ryuhon"
"705"	"Sad"
"706"	"SaKuRa"
"707"	"Sista"
"708"	"Sonagi"
"709"	"Star"
"710"	"Stom"
"711"	"STR"
"712"	"Style"
"713"	"T없e"
"714"	"UDT"
"715"	"Wiz"
"716"	"YsLEE"
"717"	"가로등"
"718"	"가스"
"719"	"가츠"
"720"	"각하"
"721"	"간"
"722"	"간지용"
"723"	"간판"
"724"	"간호사"
"725"	"감자"
"726"	"감정"
"727"	"강"
"728"	"강민경"
"729"	"강은주"
"730"	"강적"
"731"	"개쩌는스턴"
"732"	"건"
"733"	"걸"
"734"	"Dagger"
"735"	"검객"
"736"	"검마"
"737"	"검사"
"738"	"검신"
"739"	"검왕"
"740"	"Gereng"
"741"	"겨울"
"742"	"경찰"
"743"	"고군"
"744"	"고드름"
"745"	"고려"
"746"	"Goblin"
"747"	"Cat"
"748"	"고의"
"749"	"고추"
"750"	"고추농사"
"751"	"곡"
"752"	"Bear"
"753"	"곰바지"
"754"	"공"
"755"	"공명"
"756"	"공주"
"757"	"공지"
"758"	"관우"
"759"	"광"
"760"	"광개토대왕"
"761"	"광전사"
"762"	"구"
"763"	"구라"
"764"	"구루마"
"765"	"구름"
"766"	"구봉서"
"767"	"구준표"
"768"	"구혜선"
"769"	"국왕"
"770"	"군"
"771"	"군계"
"772"	"군주"
"773"	"굿"
"774"	"궁"
"775"	"Archer"
"776"	"권력"
"777"	"귀"
"778"	"귀신"
"779"	"귀신수"
"780"	"그"
"781"	"그남자"
"782"	"그랑"
"783"	"Gran Kain"
"784"	"그림죠"
"785"	"금빛섬광"
"786"	"금잔디"
"787"	"기뉴"
"789"	"Knighto"
"790"	"Knight도"
"791"	"기샤"
"792"	"김"
"793"	"김동철킬러"
"794"	"김은혜"
"795"	"김이쁨"
"796"	"김진호"
"797"	"김태연"
"798"	"김태희"
"799"	"김택진"
"800"	"김하늘"
"801"	"깡"
"802"	"깡다구"
"803"	"깡패"
"804"	"꺼져"
"805"	"껙썩"
"806"	"Little Boy"
"807"	"꼬장"
"808"	"꼬추"
"809"	"꼬추털"
"810"	"꽃"
"811"	"꽃돌이"
"812"	"꽃동화"
"813"	"꽃보다은수"
"814"	"꽃잎"
"815"	"꾼"
"816"	"꿈"
"817"	"끝"
"818"	"나"
"819"	"나나야"
"820"	"나이키"
"821"	"낙화"
"822"	"낚"
"823"	"남궁수영"
"824"	"남규리"
"825"	"Man"
"826"	"남자야"
"827"	"낭인"
"828"	"내여자"
"829"	"널내게로"
"830"	"넬"
"831"	"Nodim"
"832"	"노무현"
"833"	"노을"
"834"	"농부"
"835"	"농사"
"836"	"누나"
"837"	"누님"
"838"	"Tear"
"839"	"눈화장이쁘지"
"840"	"Wolf"
"841"	"니나노"
"842"	"님"
"843"	"님좀촹인듯"
"844"	"다"
"845"	"다솜"
"846"	"슬레이브"
"847"	"다찌마와LEE"
"848"	"다크"
"849"	"다크나이트"
"850"	"다크악마"
"851"	"Dark Elf"
"852"	"다크Elf1"
"853"	"다크헬프"
"854"	"닥터K"
"855"	"단"
"856"	"Dagger"
"857"	"단연"
"858"	"달"
"859"	"달빛"
"860"	"닭"
"861"	"닭쳐먹는소녀"
"862"	"담배"
"863"	"대갈공명"
"864"	"Greatsword"
"865"	"대구미래대학"
"866"	"대기"
"867"	"대박"
"868"	"대부"
"869"	"대왕"
"870"	"대장"
"871"	"대한강인"
"872"	"던힐"
"873"	"덜덜후덜"
"874"	"Demon"
"875"	"Death"
"876"	"데스나이드"
"877"	"데쓰나이트"
"878"	"덱스"
"879"	"도"
"880"	"도망자"
"881"	"Doppelganger Boss"
"882"	"독"
"883"	"독불전사"
"884"	"독사"
"885"	"독종"
"886"	"동"
"887"	"된장남"
"888"	"두팡"
"889"	"드레곤포스"
"890"	"드레드"
"891"	"들국화"
"892"	"들쥐"
"893"	"딘"
"894"	"딩구"
"895"	"딸"
"896"	"딸기맛입술"
"897"	"땡구"
"898"	"떠블드래곤"
"899"	"똥"
"900"	"라이언"
"901"	"라져"
"902"	"람"
"903"	"래니"
"904"	"러브"
"905"	"러브홀릭"
"906"	"레골라스"
"907"	"레쓰비"
"908"	"레인저"
"909"	"령"
"910"	"령v"
"911"	"로미"
"912"	"Robin"
"913"	"Rose"
"914"	"롤랑"
"915"	"룡"
"916"	"루"
"917"	"루나"
"918"	"Lulu"
"919"	"루이"
"920"	"Ruse"
"921"	"루피"
"922"	"룬"
"923"	"류"
"924"	"태권도부"
"925"	"리니지"
"926"	"리더"
"927"	"리센"
"928"	"Liz"
"929"	"Lich"
"930"	"Reaper"
"931"	"린"
"932"	"Lindvior"
"933"	"릴케"
"934"	"링컨"
"935"	"마"
"936"	"마검"
"937"	"마귀"
"938"	"마녀"
"939"	"마논"
"940"	"마담"
"941"	"마리"
"942"	"마린"
"943"	"Wizard"
"944"	"마스터"
"945"	"마약"
"946"	"마왕"
"947"	"마인부우"
"948"	"마제"
"949"	"마징가"
"950"	"마초"
"951"	"마투"
"952"	"마틴"
"953"	"마패"
"954"	"마피아"
"955"	"막강"
"956"	"막장"
"957"	"망"
"958"	"매직"
"959"	"매트"
"960"	"매화"
"961"	"머이쉬바라마"
"962"	"멍"
"963"	"멍미"
"964"	"메츠"
"965"	"멸"
"966"	"명"
"967"	"명성황후"
"968"	"명품어바"
"969"	"모험"
"970"	"몽"
"971"	"무"
"972"	"무기"
"973"	"무인상점"
"974"	"무적"
"975"	"무휼"
"976"	"Water"
"977"	"물요정"
"978"	"물파스"
"979"	"뭘봐개쌕갸"
"980"	"뮨"
"981"	"므이"
"982"	"미"
"983"	"미가엘"
"984"	"미녀"
"985"	"미래소녀"
"986"	"미리내"
"987"	"미스코리아"
"988"	"미카엘"
"989"	"민경"
"990"	"민들레"
"991"	"민소희"
"992"	"바다"
"993"	"바다사"
"994"	"바다야"
"995"	"바란칼"
"996"	"Wind"
"997"	"바보"
"998"	"바비디v"
"999"	"바비부v"
"1000"	"바포멧트"
"1001"	"바혼"
"1002"	"바혼미"
"1003"	"박명수"
"1004"	"박예진"
"1005"	"박회장"
"1006"	"Valakas"
"1007"	"Varlok"
"1008"	"발록의수종"
"1009"	"밥팅"
"1010"	"배째라"
"1011"	"백"
"1012"	"백두산"
"1013"	"백리수영"
"1014"	"곰돌이"
"1015"	"칼잡이"
"1016"	"대장님"
"1017"	"나이스가이"
"1018"	"불여우"
"1019"	"암흑병"
"1020"	"암살자"
"1021"	"흑법사"
"1022"	"마족"
"1023"	"썰어"
"1024"	"용용죽겠지"
"1025"	"지존술사"
"1026"	"기란사나이"
"1027"	"레인"
"1028"	"돌Knight"
"1029"	"천하무적"
"1030"	"까꿍이"
"1031"	"장인정신"
"1032"	"여동생"
"1033"	"훅가자"
"1034"	"여자에요"
"1035"	"매력걸"
"1036"	"하늘Knight"
"1037"	"천상의Tear"
"1038"	"허본좌"
"1039"	"스턴명품"
"1040"	"삐삐"
"1041"	"나이스샷"
"1042"	"마담"
"1043"	"깃털주숑"
"1044"	"힘덱다엘"
"1045"	"특별군주"
"1046"	"근본이된Knight"
"1047"	"곰같은요정"
"1048"	"애조아"
"1049"	"굿잡"
"1050"	"시간을거슬러"
"1051"	"힘있는남자"
"1052"	"파워걸"
"1053"	"조용한아이"
"1054"	"쿠거법사"
"1055"	"어둠종결자"
"1056"	"내가Knight다"
"1057"	"치명적한방"
"1058"	"노래하는요정"
"1059"	"시크릿가든"
"1060"	"섹시술사"
"1061"	"뉴스"
"1062"	"Snow Flower"
"1063"	"누이"
"1064"	"눈까러"
"1065"	"테베오시리스"
"1066"	"오뎅녀"
"1067"	"엘름축복"
"1068"	"출발"
"1069"	"추노"
"1070"	"꼬마마녀"
"1071"	"알바"
"1072"	"용년"
"1073"	"쪼쪼"
"1074"	"열락해"
"1075"	"똘이"
"1076"	"또치"
"1077"	"깃털"
"1078"	"파글"
"1079"	"Aruca"
"1080"	"흑Sandals"
"1081"	"무관"
"1082"	"Kiringku"
"1083"	"왕궁이"
"1084"	"그림자부츠"
"1085"	"용가더"
"1086"	"잡꾼"
"1087"	"군검"
"1088"	"Lastavard"
"1089"	"Ancient"
"1090"	"Baphomet"
"1091"	"달장"
"1092"	"Sayha"
"1093"	"레어템"
"1094"	"마수군왕"
"1095"	"Magic Book"
"1096"	"Scroll"
"1097"	"아덴상인"
"1098"	"떠돌이상인"
"1099"	"집행검"
"1100"	"재료상인"
"1101"	"악마상인"
"1102"	"방어구전문"
"1103"	"갑옷상인"
"1104"	"요정백화점"
"1105"	"악세점문"
"1106"	"고가템팜"
"1107"	"마법검"
"1108"	"떨이에요"
"1109"	"7셋"
"1110"	"마방셋"
"1111"	"재료팔아요"
"1112"	"용심이"
"1113"	"잡템의가을"
"1114"	"팝아이템"
"1115"	"사람잡는무기"
"1116"	"아"
"1117"	"낚시왕김입질"
"1118"	"케케"
"1119"	"Death"
"1120"	"나잘하지"
"1121"	"흐흐"
"1122"	"대어"
"1123"	"가자"
"1124"	"오케이"
"1125"	"고고"
