"npc_id"	"locx"	"locy"	"tarx"	"tary"	"mapid"	"start_delay"
"100087"	"32665"	"32863"	"32665"	"32871"	"2"	"0"
"100087"	"32669"	"32863"	"32669"	"32871"	"2"	"1"
"100087"	"32671"	"32864"	"32664"	"32864"	"2"	"0"
"100087"	"32671"	"32865"	"32664"	"32865"	"2"	"1"
"100087"	"32672"	"32873"	"32662"	"32873"	"2"	"0"
"100087"	"32673"	"32856"	"32673"	"32862"	"2"	"0"
"100087"	"32673"	"32868"	"32661"	"32868"	"2"	"0"
"100087"	"32673"	"32869"	"32661"	"32869"	"2"	"1"
"100087"	"32677"	"32856"	"32677"	"32862"	"2"	"1"
"100087"	"32679"	"32856"	"32679"	"32862"	"2"	"0"
"100087"	"32681"	"32856"	"32681"	"32856"	"2"	"1"
"100087"	"32683"	"32857"	"32672"	"32857"	"2"	"0"
"100087"	"32683"	"32859"	"32672"	"32859"	"2"	"1"
"100087"	"32683"	"32861"	"32672"	"32861"	"2"	"0"
"100087"	"32694"	"32832"	"32694"	"32842"	"2"	"1"
"100087"	"32701"	"32843"	"32696"	"32843"	"2"	"0"
"100087"	"32720"	"32842"	"32720"	"32855"	"2"	"0"
"100087"	"32721"	"32834"	"32711"	"32834"	"2"	"1"
"100087"	"32724"	"32845"	"32724"	"32852"	"2"	"1"
"100087"	"32726"	"32845"	"32726"	"32852"	"2"	"0"
"100087"	"32726"	"32853"	"32726"	"32857"	"2"	"0"
"100087"	"32727"	"32840"	"32727"	"32844"	"2"	"0"
"100087"	"32728"	"32832"	"32728"	"32839"	"2"	"1"
"100087"	"32728"	"32845"	"32728"	"32852"	"2"	"1"
"100087"	"32728"	"32853"	"32728"	"32857"	"2"	"1"
"100087"	"32728"	"32858"	"32728"	"32865"	"2"	"0"
"100087"	"32729"	"32840"	"32729"	"32844"	"2"	"1"
"100087"	"32730"	"32845"	"32730"	"32852"	"2"	"0"
"100087"	"32730"	"32853"	"32730"	"32857"	"2"	"0"
"100087"	"32730"	"32858"	"32730"	"32865"	"2"	"1"
"100087"	"32731"	"32840"	"32731"	"32844"	"2"	"0"
"100087"	"32732"	"32845"	"32732"	"32852"	"2"	"1"
"100087"	"32732"	"32853"	"32732"	"32857"	"2"	"1"
"100087"	"32732"	"32858"	"32732"	"32867"	"2"	"0"
"100087"	"32733"	"32832"	"32733"	"32839"	"2"	"0"
"100087"	"32733"	"32840"	"32733"	"32844"	"2"	"1"
"100087"	"32734"	"32845"	"32734"	"32852"	"2"	"0"
"100087"	"32734"	"32853"	"32734"	"32857"	"2"	"0"
"100087"	"32735"	"32860"	"32735"	"32865"	"2"	"1"
"100087"	"32736"	"32845"	"32736"	"32852"	"2"	"1"
"100087"	"32736"	"32853"	"32736"	"32859"	"2"	"1"
"100087"	"32741"	"32832"	"32741"	"32837"	"2"	"1"
"100087"	"32743"	"32860"	"32743"	"32865"	"2"	"0"
"100087"	"32744"	"32806"	"32737"	"32806"	"2"	"0"
"100087"	"32744"	"32807"	"32735"	"32807"	"2"	"1"
"100087"	"32746"	"32828"	"32746"	"32837"	"2"	"0"
"100087"	"32748"	"32828"	"32748"	"32836"	"2"	"1"
"100087"	"32750"	"32828"	"32750"	"32835"	"2"	"0"
"100087"	"32751"	"32784"	"32751"	"32798"	"2"	"0"
"100087"	"32754"	"32842"	"32739"	"32842"	"2"	"0"
"100087"	"32754"	"32855"	"32740"	"32855"	"2"	"1"
"100087"	"32755"	"32784"	"32755"	"32796"	"2"	"1"
"100087"	"32757"	"32854"	"32757"	"32867"	"2"	"0"
"100087"	"32759"	"32784"	"32759"	"32796"	"2"	"0"
"100087"	"32759"	"32800"	"32743"	"32800"	"2"	"0"
"100087"	"32759"	"32801"	"32743"	"32801"	"2"	"1"
"100087"	"32759"	"32802"	"32743"	"32802"	"2"	"0"
"100087"	"32759"	"32803"	"32743"	"32803"	"2"	"1"
"100087"	"32759"	"32804"	"32753"	"32804"	"2"	"0"
"100087"	"32759"	"32805"	"32753"	"32805"	"2"	"1"
"100087"	"32759"	"32828"	"32759"	"32841"	"2"	"0"
"100087"	"32760"	"32833"	"32749"	"32833"	"2"	"1"
"100087"	"32760"	"32863"	"32746"	"32863"	"2"	"1"
"100087"	"32763"	"32784"	"32763"	"32796"	"2"	"1"
"100087"	"32803"	"32838"	"32792"	"32838"	"2"	"0"
"100087"	"32803"	"32841"	"32794"	"32841"	"2"	"1"
"100087"	"32816"	"32826"	"32811"	"32826"	"2"	"0"
"100087"	"32816"	"32827"	"32811"	"32827"	"2"	"1"
"100087"	"32816"	"32828"	"32811"	"32828"	"2"	"0"
"100087"	"32816"	"32829"	"32811"	"32829"	"2"	"1"
"100087"	"32816"	"32830"	"32811"	"32830"	"2"	"0"
"100087"	"32816"	"32831"	"32811"	"32831"	"2"	"1"
"100087"	"32816"	"32832"	"32811"	"32832"	"2"	"0"
"100087"	"32816"	"32833"	"32811"	"32833"	"2"	"1"
"100087"	"32816"	"32834"	"32811"	"32834"	"2"	"0"
"100087"	"32816"	"32835"	"32811"	"32835"	"2"	"1"
"100087"	"32816"	"32836"	"32811"	"32836"	"2"	"0"
"100087"	"32816"	"32837"	"32811"	"32837"	"2"	"1"
"100087"	"32816"	"32838"	"32811"	"32838"	"2"	"0"
"100087"	"32816"	"32839"	"32811"	"32839"	"2"	"1"
"100087"	"32816"	"32840"	"32811"	"32840"	"2"	"0"
"100087"	"32816"	"32841"	"32811"	"32841"	"2"	"1"
"100087"	"32816"	"32842"	"32811"	"32842"	"2"	"0"
"100087"	"32816"	"32843"	"32811"	"32843"	"2"	"1"
"100087"	"32816"	"32844"	"32811"	"32844"	"2"	"0"
"100087"	"32816"	"32845"	"32811"	"32845"	"2"	"1"
"100087"	"32816"	"32846"	"32811"	"32846"	"2"	"0"
"100087"	"32816"	"32847"	"32811"	"32847"	"2"	"1"
"100087"	"32816"	"32848"	"32811"	"32848"	"2"	"0"
