"id"	"type"	"location"	"npc_id"	"locx"	"locy"	"heading"
"1"	"0"	"베아사무"	"4039008"	"32935"	"32680"	"5"
"2"	"0"	"카임사무"	"4039010"	"32920"	"32664"	"4"
"3"	"1"	"Fafurion"	"4039000"	"32954"	"32834"	"1"
"4"	"2"	"Fafurion"	"4039006"	"32954"	"32834"	"1"
"5"	"3"	"Fafurion"	"4039007"	"32954"	"32834"	"1"
"6"	"0"	"1공간1문"	"4038201"	"32741"	"32840"	"0"
"7"	"0"	"1공간2문"	"4038202"	"32779"	"32809"	"0"
"8"	"0"	"1공간3문"	"4038203"	"32861"	"32837"	"0"
"9"	"0"	"2공간1문"	"4038201"	"32741"	"32712"	"0"
"10"	"0"	"2공간2문"	"4038202"	"32779"	"32682"	"0"
"11"	"0"	"2공간3문"	"4038203"	"32861"	"32709"	"0"
"12"	"0"	"3공간1문"	"4038201"	"32741"	"32584"	"0"
"13"	"0"	"3공간2문"	"4038202"	"32779"	"32554"	"0"
"14"	"0"	"3공간3문"	"4038203"	"32861"	"32581"	"0"
"15"	"0"	"4공간1문"	"4038201"	"32933"	"32584"	"0"
"16"	"0"	"4공간2문"	"4038202"	"32971"	"32553"	"0"
"17"	"0"	"4공간3문"	"4038203"	"33053"	"32581"	"0"
"18"	"0"	"Sael"	"4039009"	"32859"	"32792"	"6"
"19"	"0"	"Sael"	"4039009"	"32859"	"32664"	"6"
"20"	"0"	"Sael"	"4039009"	"32859"	"32536"	"6"
"21"	"0"	"Sael"	"4039009"	"33051"	"32536"	"6"
"22"	"0"	"Sael"	"4039009"	"32934"	"32668"	"4"
"23"	"0"	"젠도르"	"4203000"	"32937"	"32668"	"4"
