"ID"	"TYPE"	"NAME"	"USE"	"BUFF_SPAWN_TIME"	"POSSIBLE_LEVEL"	"MIN_PARTY"	"MAX_PARTY"	"NEED_ITEMID"	"NEED_ITEMCOUNT"	"PLAY_INST"	"MAPRT_LEFT"	"MAPRT_TOP"	"MAPRT_RIGHT"	"MAPRT_BOTTOM"	"MAPID"	"STARTPOS_REDX"	"STARTPOS_REDY"	"STARTPOS_BLUEX"	"STARTPOS_BLUEY"	"PLAYTIME"	"READYTIME"	"RAND_WINNER_RATIO"
"1"	"0"	"구매하기"	"1"	"120"	"60"	"1"	"1"	"40308"	"1000000"	"MJLFCLastDuel"	"32734"	"32860"	"32740"	"32866"	"13051"	"32737"	"32860"	"32737"	"32866"	"300"	"30"	"55"
"2"	"1"	"판매하기"	"1"	"120"	"60"	"1"	"8"	"40308"	"1000000"	"MJLFCDummy"	"32797"	"32815"	"32806"	"32848"	"13052"	"32802"	"32816"	"32802"	"32847"	"600"	"30"	"55"
