"id"	"note"	"type"	"gfxId"	"isDetectionable"	"base"	"dice"	"diceCount"	"poisonType"	"poisonDelay"	"poisonTime"	"poisonDamage"	"monsterNpcId"	"monsterCount"	"teleportX"	"teleportY"	"teleportMapId"	"skillId"	"skillTimeSeconds"
"1"	"트라바사미"	"L1DamageTrap"	"1065"	"1"	"10"	"10"	"1"	"-"	"0"	"0"	"0"	"0"	"0"	"0"	"0"	"0"	"0"	"0"
"2"	"Lesser Heal"	"L1HealingTrap"	"1074"	"0"	"10"	"10"	"1"	"-"	"0"	"0"	"0"	"0"	"0"	"0"	"0"	"0"	"0"	"0"
"3"	"데미지독"	"L1PoisonTrap"	"1066"	"1"	"0"	"0"	"0"	"d"	"0"	"5000"	"10"	"0"	"0"	"0"	"0"	"0"	"0"	"0"
"4"	"침묵독"	"L1PoisonTrap"	"1066"	"1"	"0"	"0"	"0"	"s"	"0"	"0"	"10"	"0"	"0"	"0"	"0"	"0"	"0"	"0"
"5"	"마비독"	"L1PoisonTrap"	"1066"	"1"	"0"	"0"	"0"	"p"	"5000"	"5000"	"0"	"0"	"0"	"0"	"0"	"0"	"0"	"0"
"6"	"날씨"	"L1DamageTrap"	"1085"	"1"	"10"	"10"	"1"	"-"	"0"	"0"	"0"	"0"	"0"	"0"	"0"	"0"	"0"	"0"
"7"	"바늘(옆)"	"L1DamageTrap"	"1070"	"1"	"10"	"10"	"1"	"-"	"0"	"0"	"0"	"0"	"0"	"0"	"0"	"0"	"0"	"0"
"8"	"TOI4F monster"	"L1MonsterTrap"	"0"	"0"	"0"	"0"	"0"	"-"	"0"	"0"	"0"	"45348"	"2"	"0"	"0"	"0"	"0"	"0"
"9"	"TOI8F monster"	"L1MonsterTrap"	"0"	"0"	"0"	"0"	"0"	"-"	"0"	"0"	"0"	"45407"	"2"	"0"	"0"	"0"	"0"	"0"
"10"	"TOI14F monster"	"L1MonsterTrap"	"0"	"0"	"0"	"0"	"0"	"-"	"0"	"0"	"0"	"45394"	"2"	"0"	"0"	"0"	"0"	"0"
"11"	"TOI18F monster"	"L1MonsterTrap"	"0"	"0"	"0"	"0"	"0"	"-"	"0"	"0"	"0"	"45406"	"2"	"0"	"0"	"0"	"0"	"0"
"12"	"TOI24F monster"	"L1MonsterTrap"	"0"	"0"	"0"	"0"	"0"	"-"	"0"	"0"	"0"	"45384"	"2"	"0"	"0"	"0"	"0"	"0"
"13"	"TOI28F monster"	"L1MonsterTrap"	"0"	"0"	"0"	"0"	"0"	"-"	"0"	"0"	"0"	"45471"	"2"	"0"	"0"	"0"	"0"	"0"
"14"	"TOI34F monster"	"L1MonsterTrap"	"0"	"0"	"0"	"0"	"0"	"-"	"0"	"0"	"0"	"45403"	"2"	"0"	"0"	"0"	"0"	"0"
"15"	"TOI38F monster"	"L1MonsterTrap"	"0"	"0"	"0"	"0"	"0"	"-"	"0"	"0"	"0"	"45455"	"2"	"0"	"0"	"0"	"0"	"0"
"16"	"TOI44F monster"	"L1MonsterTrap"	"0"	"0"	"0"	"0"	"0"	"-"	"0"	"0"	"0"	"45514"	"2"	"0"	"0"	"0"	"0"	"0"
"17"	"TOI48F monster"	"L1MonsterTrap"	"0"	"0"	"0"	"0"	"0"	"-"	"0"	"0"	"0"	"45522"	"2"	"0"	"0"	"0"	"0"	"0"
"18"	"TOI54F monster"	"L1MonsterTrap"	"0"	"0"	"0"	"0"	"0"	"-"	"0"	"0"	"0"	"45524"	"2"	"0"	"0"	"0"	"0"	"0"
"19"	"TOI64F monster"	"L1MonsterTrap"	"0"	"0"	"0"	"0"	"0"	"-"	"0"	"0"	"0"	"45528"	"2"	"0"	"0"	"0"	"0"	"0"
"20"	"TOI74F monster"	"L1MonsterTrap"	"0"	"0"	"0"	"0"	"0"	"-"	"0"	"0"	"0"	"45503"	"2"	"0"	"0"	"0"	"0"	"0"
"21"	"TOI78F monster"	"L1MonsterTrap"	"0"	"0"	"0"	"0"	"0"	"-"	"0"	"0"	"0"	"45532"	"2"	"0"	"0"	"0"	"0"	"0"
"22"	"TOI84F monster"	"L1MonsterTrap"	"0"	"0"	"0"	"0"	"0"	"-"	"0"	"0"	"0"	"45586"	"2"	"0"	"0"	"0"	"0"	"0"
"23"	"TOI94F monster"	"L1MonsterTrap"	"0"	"0"	"0"	"0"	"0"	"-"	"0"	"0"	"0"	"45621"	"2"	"0"	"0"	"0"	"0"	"0"
"24"	"IT4F 아이안고렘"	"L1MonsterTrap"	"0"	"0"	"0"	"0"	"0"	"-"	"0"	"0"	"0"	"45372"	"2"	"0"	"0"	"0"	"0"	"0"
"25"	"IT4F 미믹크"	"L1MonsterTrap"	"0"	"0"	"0"	"0"	"0"	"-"	"0"	"0"	"0"	"45141"	"2"	"0"	"0"	"0"	"0"	"0"
"26"	"IT4F 리빙 아모"	"L1MonsterTrap"	"0"	"0"	"0"	"0"	"0"	"-"	"0"	"0"	"0"	"45322"	"2"	"0"	"0"	"0"	"0"	"0"
"27"	"IT5F 아이안고렘"	"L1MonsterTrap"	"0"	"0"	"0"	"0"	"0"	"-"	"0"	"0"	"0"	"45372"	"3"	"0"	"0"	"0"	"0"	"0"
"28"	"IT5F 미믹크"	"L1MonsterTrap"	"0"	"0"	"0"	"0"	"0"	"-"	"0"	"0"	"0"	"45141"	"3"	"0"	"0"	"0"	"0"	"0"
"29"	"IT5F 리빙 아모"	"L1MonsterTrap"	"0"	"0"	"0"	"0"	"0"	"-"	"0"	"0"	"0"	"45322"	"3"	"0"	"0"	"0"	"0"	"0"
"30"	"IT6F Silhouette"	"L1MonsterTrap"	"0"	"0"	"0"	"0"	"0"	"-"	"0"	"0"	"0"	"45162"	"3"	"0"	"0"	"0"	"0"	"0"
"31"	"IT6F Death"	"L1MonsterTrap"	"0"	"0"	"0"	"0"	"0"	"-"	"0"	"0"	"0"	"45221"	"3"	"0"	"0"	"0"	"0"	"0"
"32"	"IT7F Silhouette"	"L1MonsterTrap"	"0"	"0"	"0"	"0"	"0"	"-"	"0"	"0"	"0"	"45162"	"4"	"0"	"0"	"0"	"0"	"0"
"33"	"IT7F Death"	"L1MonsterTrap"	"0"	"0"	"0"	"0"	"0"	"-"	"0"	"0"	"0"	"45221"	"4"	"0"	"0"	"0"	"0"	"0"
"34"	"IT8F 아이안고렘"	"L1MonsterTrap"	"0"	"0"	"0"	"0"	"0"	"-"	"0"	"0"	"0"	"45372"	"5"	"0"	"0"	"0"	"0"	"0"
"35"	"IT8F Silhouette"	"L1MonsterTrap"	"0"	"0"	"0"	"0"	"0"	"-"	"0"	"0"	"0"	"45162"	"5"	"0"	"0"	"0"	"0"	"0"
"36"	"IT8F Death"	"L1MonsterTrap"	"0"	"0"	"0"	"0"	"0"	"-"	"0"	"0"	"0"	"45221"	"5"	"0"	"0"	"0"	"0"	"0"
"37"	"IT8F 리빙 아모"	"L1MonsterTrap"	"0"	"0"	"0"	"0"	"0"	"-"	"0"	"0"	"0"	"45322"	"5"	"0"	"0"	"0"	"0"	"0"
"38"	"흐랑코 미로 러버 Bone Soldier"	"L1MonsterTrap"	"0"	"0"	"0"	"0"	"0"	"-"	"0"	"0"	"0"	"46057"	"4"	"0"	"0"	"0"	"0"	"0"
"39"	"흐랑코 미로 라바본아챠"	"L1MonsterTrap"	"0"	"0"	"0"	"0"	"0"	"-"	"0"	"0"	"0"	"46058"	"4"	"0"	"0"	"0"	"0"	"0"
"40"	"흐랑코 미로 러버 얼간이"	"L1MonsterTrap"	"0"	"0"	"0"	"0"	"0"	"-"	"0"	"0"	"0"	"46059"	"4"	"0"	"0"	"0"	"0"	"0"
"41"	"흐랑코 미로 러버 Bone 나이프"	"L1MonsterTrap"	"0"	"0"	"0"	"0"	"0"	"-"	"0"	"0"	"0"	"46056"	"4"	"0"	"0"	"0"	"0"	"0"
"42"	"흐랑코 미로 스타트 지점"	"L1TeleportTrap"	"0"	"0"	"0"	"0"	"0"	"-"	"0"	"0"	"0"	"0"	"4"	"32679"	"32742"	"482"	"0"	"0"
"43"	"디에고가 닫힌 뇌스타트 지점"	"L1TeleportTrap"	"0"	"0"	"0"	"0"	"0"	"n"	"0"	"0"	"0"	"0"	"0"	"32736"	"32800"	"483"	"0"	"0"
"44"	"도깨비 저택 파라라이즈"	"L1SkillTrap"	"0"	"0"	"0"	"0"	"0"	"-"	"0"	"0"	"0"	"0"	"0"	"0"	"0"	"0"	"33"	"0"
"45"	"도깨비 저택 블라인드"	"L1SkillTrap"	"0"	"0"	"0"	"0"	"0"	"-"	"0"	"0"	"0"	"0"	"0"	"0"	"0"	"0"	"20"	"5"
"46"	"도깨비 저택 Slow"	"L1SkillTrap"	"0"	"0"	"0"	"0"	"0"	"-"	"0"	"0"	"0"	"0"	"0"	"0"	"0"	"0"	"29"	"5"
"47"	"도깨비 저택 헤이 파업"	"L1SkillTrap"	"0"	"0"	"0"	"0"	"0"	"-"	"0"	"0"	"0"	"0"	"0"	"0"	"0"	"0"	"43"	"5"
"48"	"도깨비 저택 Teleport"	"L1TeleportTrap"	"0"	"0"	"0"	"0"	"0"	"-"	"0"	"0"	"0"	"0"	"0"	"32730"	"32829"	"5140"	"0"	"0"
"49"	"도깨비 저택 Teleport"	"L1TeleportTrap"	"0"	"0"	"0"	"0"	"0"	"-"	"0"	"0"	"0"	"0"	"0"	"32749"	"32813"	"5140"	"0"	"0"
"50"	"도깨비 저택 Teleport"	"L1TeleportTrap"	"0"	"0"	"0"	"0"	"0"	"-"	"0"	"0"	"0"	"0"	"0"	"32747"	"32867"	"5140"	"0"	"0"
"51"	"도깨비 저택 Teleport"	"L1TeleportTrap"	"0"	"0"	"0"	"0"	"0"	"-"	"0"	"0"	"0"	"0"	"0"	"32785"	"32819"	"5140"	"0"	"0"
"52"	"도깨비 저택 Teleport"	"L1TeleportTrap"	"0"	"0"	"0"	"0"	"0"	"-"	"0"	"0"	"0"	"0"	"0"	"32797"	"32869"	"5140"	"0"	"0"
"70"	"Haunted House 문작동해골"	"L1GhostHouseTrap"	"6334"	"0"	"0"	"0"	"0"	"z"	"0"	"0"	"0"	"0"	"0"	"0"	"0"	"0"	"0"	"0"
"71"	"Haunted House 종료라인"	"L1GhostHouseTrap"	"0"	"0"	"0"	"0"	"0"	"-"	"0"	"0"	"0"	"0"	"0"	"0"	"0"	"0"	"0"	"0"
"80"	"스타트라인"	"L1PetRacingTrap"	"0"	"0"	"0"	"0"	"0"	"-"	"0"	"0"	"0"	"0"	"0"	"0"	"0"	"0"	"0"	"0"
"81"	"바퀴체크1"	"L1PetRacingTrap"	"0"	"0"	"0"	"0"	"0"	"-"	"0"	"0"	"0"	"0"	"0"	"0"	"0"	"0"	"0"	"0"
"82"	"바퀴체크2"	"L1PetRacingTrap"	"0"	"0"	"0"	"0"	"0"	"-"	"0"	"0"	"0"	"0"	"0"	"0"	"0"	"0"	"0"	"0"
"83"	"바퀴체크3"	"L1PetRacingTrap"	"0"	"0"	"0"	"0"	"0"	"-"	"0"	"0"	"0"	"0"	"0"	"0"	"0"	"0"	"0"	"0"
"85"	"변신트랩"	"L1PetRacingTrap"	"6675"	"0"	"0"	"0"	"0"	"-"	"0"	"0"	"0"	"0"	"0"	"0"	"0"	"0"	"0"	"0"
"86"	"변신트랩(노이펙)"	"L1PetRacingTrap"	"0"	"0"	"0"	"0"	"0"	"-"	"0"	"0"	"0"	"0"	"0"	"0"	"0"	"0"	"0"	"0"
"87"	"속도트랩"	"L1PetRacingTrap"	"6674"	"0"	"0"	"0"	"0"	"-"	"0"	"0"	"0"	"0"	"0"	"0"	"0"	"0"	"0"	"0"
"90"	"체크포인트1-1"	"L1PetRacingTrap"	"0"	"0"	"0"	"0"	"0"	"-"	"0"	"0"	"0"	"0"	"0"	"0"	"0"	"0"	"0"	"0"
"91"	"체크포인트1-2"	"L1PetRacingTrap"	"0"	"0"	"0"	"0"	"0"	"-"	"0"	"0"	"0"	"0"	"0"	"0"	"0"	"0"	"0"	"0"
"92"	"체크포인트2-1"	"L1PetRacingTrap"	"0"	"0"	"0"	"0"	"0"	"-"	"0"	"0"	"0"	"0"	"0"	"0"	"0"	"0"	"0"	"0"
"93"	"체크포인트2-2"	"L1PetRacingTrap"	"0"	"0"	"0"	"0"	"0"	"-"	"0"	"0"	"0"	"0"	"0"	"0"	"0"	"0"	"0"	"0"
"94"	"체크포인트3-1"	"L1PetRacingTrap"	"0"	"0"	"0"	"0"	"0"	"-"	"0"	"0"	"0"	"0"	"0"	"0"	"0"	"0"	"0"	"0"
"95"	"체크포인트3-2"	"L1PetRacingTrap"	"0"	"0"	"0"	"0"	"0"	"-"	"0"	"0"	"0"	"0"	"0"	"0"	"0"	"0"	"0"	"0"
"96"	"체크포인트4-1"	"L1PetRacingTrap"	"0"	"0"	"0"	"0"	"0"	"-"	"0"	"0"	"0"	"0"	"0"	"0"	"0"	"0"	"0"	"0"
"97"	"체크포인트4-2"	"L1PetRacingTrap"	"0"	"0"	"0"	"0"	"0"	"-"	"0"	"0"	"0"	"0"	"0"	"0"	"0"	"0"	"0"	"0"
"88"	"속도트랩(노이펙)"	"L1PetRacingTrap"	"0"	"0"	"0"	"0"	"0"	"-"	"0"	"0"	"0"	"0"	"0"	"0"	"0"	"0"	"0"	"0"
"98"	"안타방 어스재일"	"L1DamageTrap"	"1805"	"1"	"100"	"50"	"1"	"-"	"0"	"0"	"0"	"0"	"0"	"0"	"0"	"0"	"0"	"0"
"99"	"안타방 미티어"	"L1DamageTrap"	"762"	"1"	"200"	"100"	"1"	"-"	"0"	"0"	"0"	"0"	"0"	"0"	"0"	"0"	"0"	"0"
"100"	"안타방 사일"	"L1SkillTrap"	"0"	"0"	"0"	"0"	"0"	"-"	"0"	"0"	"0"	"0"	"0"	"0"	"0"	"0"	"64"	"0"
"101"	"본던 Zombie 트랩"	"L1MonsterTrap"	"9276"	"0"	"0"	"0"	"0"	"-"	"0"	"0"	"0"	"100612"	"2"	"0"	"0"	"0"	"0"	"0"
"102"	"본던 웅골 트랩"	"L1MonsterTrap"	"9276"	"0"	"0"	"0"	"0"	"-"	"0"	"0"	"0"	"100617"	"2"	"0"	"0"	"0"	"0"	"0"
"103"	"본던 Skeleton Axeman 트랩"	"L1MonsterTrap"	"9276"	"0"	"0"	"0"	"0"	"-"	"0"	"0"	"0"	"100613"	"2"	"0"	"0"	"0"	"0"	"0"
"104"	"본던 Skeleton Archer 트랩"	"L1MonsterTrap"	"9276"	"0"	"0"	"0"	"0"	"-"	"0"	"0"	"0"	"100614"	"2"	"0"	"0"	"0"	"0"	"0"
"105"	"본던 Skeleton Pikeman 트랩"	"L1MonsterTrap"	"9276"	"0"	"0"	"0"	"0"	"-"	"0"	"0"	"0"	"100615"	"2"	"0"	"0"	"0"	"0"	"0"
"106"	"본던 Ghoul 트랩"	"L1MonsterTrap"	"9276"	"0"	"0"	"0"	"0"	"-"	"0"	"0"	"0"	"100616"	"2"	"0"	"0"	"0"	"0"	"0"
"107"	"본던 셀로브 트랩"	"L1MonsterTrap"	"9276"	"0"	"0"	"0"	"0"	"-"	"0"	"0"	"0"	"100618"	"2"	"0"	"0"	"0"	"0"	"0"
"108"	"본던 Bugbear 트랩"	"L1MonsterTrap"	"9276"	"0"	"0"	"0"	"0"	"-"	"0"	"0"	"0"	"100619"	"2"	"0"	"0"	"0"	"0"	"0"
"109"	"본던 Cerberus 트랩"	"L1MonsterTrap"	"9276"	"0"	"0"	"0"	"0"	"-"	"0"	"0"	"0"	"100622"	"2"	"0"	"0"	"0"	"0"	"0"
"110"	"본던 돌골렘 트랩"	"L1MonsterTrap"	"9276"	"0"	"0"	"0"	"0"	"-"	"0"	"0"	"0"	"100627"	"2"	"0"	"0"	"0"	"0"	"0"
"111"	"본던 킹버그 트랩"	"L1MonsterTrap"	"9276"	"0"	"0"	"0"	"0"	"-"	"0"	"0"	"0"	"100621"	"2"	"0"	"0"	"0"	"0"	"0"
